%YAML 1.1
%TAG !u! tag:unity3d.com,2011:
--- !u!1 &2375978517995834638
GameObject:
  m_ObjectHideFlags: 0
  m_CorrespondingSourceObject: {fileID: 0}
  m_PrefabInstance: {fileID: 0}
  m_PrefabAsset: {fileID: 0}
  serializedVersion: 6
  m_Component:
  - component: {fileID: 2375978517995834629}
  - component: {fileID: 2375978517995834626}
  - component: {fileID: 2375978517995834627}
  - component: {fileID: 2375978517995834624}
  - component: {fileID: 2375978517995834625}
  m_Layer: 0
  m_Name: 'Sign '
  m_TagString: Untagged
  m_Icon: {fileID: 0}
  m_NavMeshLayer: 0
  m_StaticEditorFlags: 0
  m_IsActive: 1
--- !u!4 &2375978517995834629
Transform:
  m_ObjectHideFlags: 0
  m_CorrespondingSourceObject: {fileID: 0}
  m_PrefabInstance: {fileID: 0}
  m_PrefabAsset: {fileID: 0}
  m_GameObject: {fileID: 2375978517995834638}
  m_LocalRotation: {x: 0, y: 0, z: 0, w: 1}
  m_LocalPosition: {x: 26.6, y: 2.6000001, z: -22.9}
  m_LocalScale: {x: 1, y: 1, z: 1}
  m_Children: []
  m_Father: {fileID: 0}
  m_RootOrder: 0
  m_LocalEulerAnglesHint: {x: 0, y: 0, z: 0}
--- !u!114 &2375978517995834626
MonoBehaviour:
  m_ObjectHideFlags: 0
  m_CorrespondingSourceObject: {fileID: 0}
  m_PrefabInstance: {fileID: 0}
  m_PrefabAsset: {fileID: 0}
  m_GameObject: {fileID: 2375978517995834638}
  m_Enabled: 1
  m_EditorHideFlags: 0
  m_Script: {fileID: 11500000, guid: 8233d90336aea43098adf6dbabd606a2, type: 3}
  m_Name: 
  m_EditorClassIdentifier: 
  m_MeshFormatVersion: 1
  m_Faces:
  - m_Indexes: 000000000100000002000000010000000300000002000000
    m_SmoothingGroup: 0
    m_Uv:
      m_UseWorldSpace: 0
      m_FlipU: 0
      m_FlipV: 0
      m_SwapUV: 0
      m_Fill: 1
      m_Scale: {x: 1, y: 1}
      m_Offset: {x: 0, y: 0}
      m_Rotation: 0
      m_Anchor: 9
    m_Material: {fileID: 0}
    m_SubmeshIndex: 1
    m_ManualUV: 0
    elementGroup: -1
    m_TextureGroup: -1
  - m_Indexes: 040000000500000006000000050000000700000006000000
    m_SmoothingGroup: 0
    m_Uv:
      m_UseWorldSpace: 0
      m_FlipU: 0
      m_FlipV: 0
      m_SwapUV: 0
      m_Fill: 1
      m_Scale: {x: 1, y: 1}
      m_Offset: {x: 0, y: 0}
      m_Rotation: 0
      m_Anchor: 9
    m_Material: {fileID: 0}
    m_SubmeshIndex: 1
    m_ManualUV: 0
    elementGroup: -1
    m_TextureGroup: -1
  - m_Indexes: 08000000090000000a000000090000000b0000000a000000
    m_SmoothingGroup: 0
    m_Uv:
      m_UseWorldSpace: 0
      m_FlipU: 0
      m_FlipV: 0
      m_SwapUV: 0
      m_Fill: 1
      m_Scale: {x: 1, y: 1}
      m_Offset: {x: 0, y: 0}
      m_Rotation: 0
      m_Anchor: 9
    m_Material: {fileID: 0}
    m_SubmeshIndex: 1
    m_ManualUV: 0
    elementGroup: -1
    m_TextureGroup: -1
  - m_Indexes: 0c0000000d0000000e0000000d0000000f0000000e000000
    m_SmoothingGroup: 0
    m_Uv:
      m_UseWorldSpace: 0
      m_FlipU: 0
      m_FlipV: 0
      m_SwapUV: 0
      m_Fill: 1
      m_Scale: {x: 1, y: 1}
      m_Offset: {x: 0, y: 0}
      m_Rotation: 0
      m_Anchor: 9
    m_Material: {fileID: 0}
    m_SubmeshIndex: 1
    m_ManualUV: 0
    elementGroup: -1
    m_TextureGroup: -1
  - m_Indexes: 100000001100000012000000110000001300000012000000
    m_SmoothingGroup: 0
    m_Uv:
      m_UseWorldSpace: 0
      m_FlipU: 0
      m_FlipV: 0
      m_SwapUV: 0
      m_Fill: 1
      m_Scale: {x: 1, y: 1}
      m_Offset: {x: 0, y: 0}
      m_Rotation: 0
      m_Anchor: 9
    m_Material: {fileID: 0}
    m_SubmeshIndex: 1
    m_ManualUV: 0
    elementGroup: -1
    m_TextureGroup: -1
  - m_Indexes: 140000001500000016000000150000001700000016000000
    m_SmoothingGroup: 0
    m_Uv:
      m_UseWorldSpace: 0
      m_FlipU: 0
      m_FlipV: 0
      m_SwapUV: 0
      m_Fill: 1
      m_Scale: {x: 1, y: 1}
      m_Offset: {x: 0, y: 0}
      m_Rotation: 0
      m_Anchor: 9
    m_Material: {fileID: 0}
    m_SubmeshIndex: 0
    m_ManualUV: 0
    elementGroup: -1
    m_TextureGroup: -1
  - m_Indexes: 18000000190000001a000000190000001b0000001a000000
    m_SmoothingGroup: 0
    m_Uv:
      m_UseWorldSpace: 0
      m_FlipU: 0
      m_FlipV: 0
      m_SwapUV: 0
      m_Fill: 1
      m_Scale: {x: 0.9999962, y: 1}
      m_Offset: {x: -0.3999998, y: -0.60000014}
      m_Rotation: 0
      m_Anchor: 9
    m_Material: {fileID: 0}
    m_SubmeshIndex: 1
    m_ManualUV: 0
    elementGroup: -1
    m_TextureGroup: -1
  - m_Indexes: 1c0000001d0000001e0000001d0000001f0000001e000000
    m_SmoothingGroup: 0
    m_Uv:
      m_UseWorldSpace: 0
      m_FlipU: 0
      m_FlipV: 0
      m_SwapUV: 0
      m_Fill: 1
      m_Scale: {x: 0.9999962, y: 1}
      m_Offset: {x: -0.0000001899898, y: -0.60000014}
      m_Rotation: 0
      m_Anchor: 9
    m_Material: {fileID: 0}
    m_SubmeshIndex: 1
    m_ManualUV: 0
    elementGroup: -1
    m_TextureGroup: -1
  - m_Indexes: 200000002100000022000000210000002300000022000000
    m_SmoothingGroup: 0
    m_Uv:
      m_UseWorldSpace: 0
      m_FlipU: 0
      m_FlipV: 0
      m_SwapUV: 0
      m_Fill: 1
      m_Scale: {x: 0.9999962, y: 1}
      m_Offset: {x: 0.3999998, y: -0.60000014}
      m_Rotation: 0
      m_Anchor: 9
    m_Material: {fileID: 0}
    m_SubmeshIndex: 1
    m_ManualUV: 0
    elementGroup: -1
    m_TextureGroup: -1
  - m_Indexes: 240000002500000026000000250000002700000026000000
    m_SmoothingGroup: 0
    m_Uv:
      m_UseWorldSpace: 0
      m_FlipU: 0
      m_FlipV: 0
      m_SwapUV: 0
      m_Fill: 1
      m_Scale: {x: 0.9999962, y: 1}
      m_Offset: {x: 0.0000001899898, y: -0.60000014}
      m_Rotation: 0
      m_Anchor: 9
    m_Material: {fileID: 0}
    m_SubmeshIndex: 1
    m_ManualUV: 0
    elementGroup: -1
    m_TextureGroup: -1
  - m_Indexes: 28000000290000002a000000290000002b0000002a000000
    m_SmoothingGroup: 0
    m_Uv:
      m_UseWorldSpace: 0
      m_FlipU: 0
      m_FlipV: 0
      m_SwapUV: 0
      m_Fill: 1
      m_Scale: {x: 0.9999962, y: 0.9999962}
      m_Offset: {x: 0.3999998, y: -0.0000001899898}
      m_Rotation: 0
      m_Anchor: 9
    m_Material: {fileID: 0}
    m_SubmeshIndex: 0
    m_ManualUV: 0
    elementGroup: -1
    m_TextureGroup: -1
  - m_Indexes: 2c0000002d0000002e0000002d0000002f0000002e000000
    m_SmoothingGroup: 0
    m_Uv:
      m_UseWorldSpace: 0
      m_FlipU: 0
      m_FlipV: 0
      m_SwapUV: 0
      m_Fill: 1
      m_Scale: {x: 0.9999962, y: 0.9999962}
      m_Offset: {x: -0.3999998, y: -0.0000001899898}
      m_Rotation: 0
      m_Anchor: 9
    m_Material: {fileID: 0}
    m_SubmeshIndex: 0
    m_ManualUV: 0
    elementGroup: -1
    m_TextureGroup: -1
  m_SharedVertices:
  - m_Vertices: 000000000d00000016000000
  - m_Vertices: 010000000400000017000000
  - m_Vertices: 020000000f00000010000000
  - m_Vertices: 030000000600000011000000
  - m_Vertices: 050000000800000015000000
  - m_Vertices: 070000000a00000013000000
  - m_Vertices: 090000000c00000014000000
  - m_Vertices: 0b0000000e00000012000000
  - m_Vertices: 18000000250000002e000000
  - m_Vertices: 190000001c0000002f000000
  - m_Vertices: 1a0000002700000028000000
  - m_Vertices: 1b0000001e00000029000000
  - m_Vertices: 1d000000200000002d000000
  - m_Vertices: 1f000000220000002b000000
  - m_Vertices: 21000000240000002c000000
  - m_Vertices: 23000000260000002a000000
  m_SharedTextures: []
  m_Positions:
  - {x: 0, y: 0, z: 0}
  - {x: 0.9, y: 0, z: 0}
  - {x: 0, y: 0.6, z: 0}
  - {x: 0.9, y: 0.6, z: 0}
  - {x: 0.9, y: 0, z: 0}
  - {x: 0.9, y: 0, z: -0.1}
  - {x: 0.9, y: 0.6, z: 0}
  - {x: 0.9, y: 0.6, z: -0.1}
  - {x: 0.9, y: 0, z: -0.1}
  - {x: 0, y: 0, z: -0.1}
  - {x: 0.9, y: 0.6, z: -0.1}
  - {x: 0, y: 0.6, z: -0.1}
  - {x: 0, y: 0, z: -0.1}
  - {x: 0, y: 0, z: 0}
  - {x: 0, y: 0.6, z: -0.1}
  - {x: 0, y: 0.6, z: 0}
  - {x: 0, y: 0.6, z: 0}
  - {x: 0.9, y: 0.6, z: 0}
  - {x: 0, y: 0.6, z: -0.1}
  - {x: 0.9, y: 0.6, z: -0.1}
  - {x: 0, y: 0, z: -0.1}
  - {x: 0.9, y: 0, z: -0.1}
  - {x: 0, y: 0, z: 0}
  - {x: 0.9, y: 0, z: 0}
  - {x: 0.39999962, y: -0.60000014, z: 0}
  - {x: 0.5, y: -0.60000014, z: 0}
  - {x: 0.39999962, y: 0.39999986, z: 0}
  - {x: 0.5, y: 0.39999986, z: 0}
  - {x: 0.5, y: -0.60000014, z: 0}
  - {x: 0.5, y: -0.60000014, z: -0.10000038}
  - {x: 0.5, y: 0.39999986, z: 0}
  - {x: 0.5, y: 0.39999986, z: -0.10000038}
  - {x: 0.5, y: -0.60000014, z: -0.10000038}
  - {x: 0.39999962, y: -0.60000014, z: -0.10000038}
  - {x: 0.5, y: 0.39999986, z: -0.10000038}
  - {x: 0.39999962, y: 0.39999986, z: -0.10000038}
  - {x: 0.39999962, y: -0.60000014, z: -0.10000038}
  - {x: 0.39999962, y: -0.60000014, z: 0}
  - {x: 0.39999962, y: 0.39999986, z: -0.10000038}
  - {x: 0.39999962, y: 0.39999986, z: 0}
  - {x: 0.39999962, y: 0.39999986, z: 0}
  - {x: 0.5, y: 0.39999986, z: 0}
  - {x: 0.39999962, y: 0.39999986, z: -0.10000038}
  - {x: 0.5, y: 0.39999986, z: -0.10000038}
  - {x: 0.39999962, y: -0.60000014, z: -0.10000038}
  - {x: 0.5, y: -0.60000014, z: -0.10000038}
  - {x: 0.39999962, y: -0.60000014, z: 0}
  - {x: 0.5, y: -0.60000014, z: 0}
  m_Textures0:
  - {x: 0, y: 0}
  - {x: -0.9, y: 0}
  - {x: 0, y: 0.6}
  - {x: -0.9, y: 0.6}
  - {x: 0, y: 0}
  - {x: -0.1, y: 0}
  - {x: 0, y: 0.6}
  - {x: -0.1, y: 0.6}
  - {x: 0.9, y: 0}
  - {x: 0, y: 0}
  - {x: 0.9, y: 0.6}
  - {x: 0, y: 0.6}
  - {x: 0.1, y: 0}
  - {x: 0, y: 0}
  - {x: 0.1, y: 0.6}
  - {x: 0, y: 0.6}
  - {x: 0, y: 0}
  - {x: 0.9, y: 0}
  - {x: 0, y: -0.1}
  - {x: 0.9, y: -0.1}
  - {x: 0, y: -0.1}
  - {x: -0.9, y: -0.1}
  - {x: 0, y: 0}
  - {x: -0.9, y: 0}
  - {x: 0, y: 0}
  - {x: -0.100000024, y: 0}
  - {x: 0, y: 1}
  - {x: -0.100000024, y: 1}
  - {x: 0, y: 0}
  - {x: -0.099999994, y: 0}
  - {x: 0, y: 1}
  - {x: -0.099999994, y: 1}
  - {x: 0.100000024, y: 0}
  - {x: 0, y: 0}
  - {x: 0.100000024, y: 1}
  - {x: 0, y: 1}
  - {x: 0.099999994, y: 0}
  - {x: 0, y: 0}
  - {x: 0.099999994, y: 1}
  - {x: 0, y: 1}
  - {x: 0, y: 0}
  - {x: 0.100000024, y: 0}
  - {x: 0, y: -0.099999994}
  - {x: 0.100000024, y: -0.099999994}
  - {x: 0, y: -0.099999994}
  - {x: -0.100000024, y: -0.099999994}
  - {x: 0, y: 0}
  - {x: -0.100000024, y: 0}
  m_Textures2: []
  m_Textures3: []
  m_Tangents:
  - {x: -1, y: 0, z: 0, w: -1}
  - {x: -1, y: 0, z: 0, w: -1}
  - {x: -1, y: 0, z: 0, w: -1}
  - {x: -1, y: 0, z: 0, w: -1}
  - {x: 0, y: 0, z: 1, w: -1}
  - {x: 0, y: 0, z: 1, w: -1}
  - {x: 0, y: 0, z: 1, w: -1}
  - {x: 0, y: 0, z: 1, w: -1}
  - {x: 1, y: 0, z: 0, w: -1}
  - {x: 1, y: 0, z: 0, w: -1}
  - {x: 1, y: 0, z: 0, w: -1}
  - {x: 1, y: 0, z: 0, w: -1}
  - {x: 0, y: 0, z: -1, w: -1}
  - {x: 0, y: 0, z: -1, w: -1}
  - {x: 0, y: 0, z: -1, w: -1}
  - {x: 0, y: 0, z: -1, w: -1}
  - {x: 1, y: 0, z: 0, w: -1}
  - {x: 1, y: 0, z: 0, w: -1}
  - {x: 1, y: 0, z: 0, w: -1}
  - {x: 1, y: 0, z: 0, w: -1}
  - {x: -1, y: 0, z: 0, w: -1}
  - {x: -1, y: 0, z: 0, w: -1}
  - {x: -1, y: 0, z: 0, w: -1}
  - {x: -1, y: 0, z: 0, w: -1}
  - {x: -1, y: 0, z: 0, w: -1}
  - {x: -1, y: 0, z: 0, w: -1}
  - {x: -1, y: 0, z: 0, w: -1}
  - {x: -1, y: 0, z: 0, w: -1}
  - {x: 0, y: 0, z: 1, w: -1}
  - {x: 0, y: 0, z: 1, w: -1}
  - {x: 0, y: 0, z: 1, w: -1}
  - {x: 0, y: 0, z: 1, w: -1}
  - {x: 1, y: 0, z: 0, w: -1}
  - {x: 1, y: 0, z: 0, w: -1}
  - {x: 1, y: 0, z: 0, w: -1}
  - {x: 1, y: 0, z: 0, w: -1}
  - {x: 0, y: 0, z: -1, w: -1}
  - {x: 0, y: 0, z: -1, w: -1}
  - {x: 0, y: 0, z: -1, w: -1}
  - {x: 0, y: 0, z: -1, w: -1}
  - {x: 1, y: 0, z: 0, w: -1}
  - {x: 1, y: 0, z: 0, w: -1}
  - {x: 1, y: 0, z: 0, w: -1}
  - {x: 1, y: 0, z: 0, w: -1}
  - {x: -1, y: 0, z: 0, w: -1}
  - {x: -1, y: 0, z: 0, w: -1}
  - {x: -1, y: 0, z: 0, w: -1}
  - {x: -1, y: 0, z: 0, w: -1}
  m_Colors: []
  m_UnwrapParameters:
    m_HardAngle: 88
    m_PackMargin: 20
    m_AngleError: 8
    m_AreaError: 15
  m_PreserveMeshAssetOnDestroy: 0
  assetGuid: 
  m_Mesh: {fileID: 0}
  m_IsSelectable: 1
  m_SelectedFaces: 09000000
  m_SelectedEdges:
  - a: 36
    b: 37
  - a: 38
    b: 36
  - a: 37
    b: 39
  - a: 39
    b: 38
  m_SelectedVertices: 24000000250000002600000027000000
--- !u!23 &2375978517995834627
MeshRenderer:
  m_ObjectHideFlags: 0
  m_CorrespondingSourceObject: {fileID: 0}
  m_PrefabInstance: {fileID: 0}
  m_PrefabAsset: {fileID: 0}
  m_GameObject: {fileID: 2375978517995834638}
  m_Enabled: 1
  m_CastShadows: 1
  m_ReceiveShadows: 1
  m_DynamicOccludee: 1
  m_MotionVectors: 1
  m_LightProbeUsage: 1
  m_ReflectionProbeUsage: 1
  m_RayTracingMode: 2
  m_RenderingLayerMask: 1
  m_RendererPriority: 0
  m_Materials:
  - {fileID: 2100000, guid: fb25e7b95ce6d134090eee2b0cef61ea, type: 2}
  - {fileID: 2100000, guid: 60ffdb2e1bd72b741abcf0e97ae499b4, type: 2}
  m_StaticBatchInfo:
    firstSubMesh: 0
    subMeshCount: 0
  m_StaticBatchRoot: {fileID: 0}
  m_ProbeAnchor: {fileID: 0}
  m_LightProbeVolumeOverride: {fileID: 0}
  m_ScaleInLightmap: 1
  m_ReceiveGI: 1
  m_PreserveUVs: 0
  m_IgnoreNormalsForChartDetection: 0
  m_ImportantGI: 0
  m_StitchLightmapSeams: 1
  m_SelectedEditorRenderState: 2
  m_MinimumChartSize: 4
  m_AutoUVMaxDistance: 0.5
  m_AutoUVMaxAngle: 89
  m_LightmapParameters: {fileID: 0}
  m_SortingLayerID: 0
  m_SortingLayer: 0
  m_SortingOrder: 0
--- !u!33 &2375978517995834624
MeshFilter:
  m_ObjectHideFlags: 0
  m_CorrespondingSourceObject: {fileID: 0}
  m_PrefabInstance: {fileID: 0}
  m_PrefabAsset: {fileID: 0}
  m_GameObject: {fileID: 2375978517995834638}
  m_Mesh: {fileID: 0}
--- !u!64 &2375978517995834625
MeshCollider:
  m_ObjectHideFlags: 0
  m_CorrespondingSourceObject: {fileID: 0}
  m_PrefabInstance: {fileID: 0}
  m_PrefabAsset: {fileID: 0}
  m_GameObject: {fileID: 2375978517995834638}
  m_Material: {fileID: 0}
  m_IsTrigger: 0
  m_Enabled: 1
  serializedVersion: 4
  m_Convex: 0
  m_CookingOptions: 30
  m_Mesh: {fileID: 0}
