%YAML 1.1
%TAG !u! tag:unity3d.com,2011:
--- !u!1 &1432515446063595729
GameObject:
  m_ObjectHideFlags: 0
  m_CorrespondingSourceObject: {fileID: 0}
  m_PrefabInstance: {fileID: 0}
  m_PrefabAsset: {fileID: 0}
  serializedVersion: 6
  m_Component:
  - component: {fileID: 1432515446063595734}
  - component: {fileID: 1432515446063595733}
  - component: {fileID: 1432515446063595732}
  - component: {fileID: 1432515446063595731}
  - component: {fileID: 1432515446063595730}
  m_Layer: 0
  m_Name: Trash
  m_TagString: Untagged
  m_Icon: {fileID: 0}
  m_NavMeshLayer: 0
  m_StaticEditorFlags: 0
  m_IsActive: 1
--- !u!4 &1432515446063595734
Transform:
  m_ObjectHideFlags: 0
  m_CorrespondingSourceObject: {fileID: 0}
  m_PrefabInstance: {fileID: 0}
  m_PrefabAsset: {fileID: 0}
  m_GameObject: {fileID: 1432515446063595729}
  m_LocalRotation: {x: -0, y: -0.51503795, z: -0, w: 0.85716736}
  m_LocalPosition: {x: 0.06930586, y: 0, z: 0.14879777}
  m_LocalScale: {x: 1, y: 1, z: 1}
  m_Children: []
  m_Father: {fileID: 0}
  m_RootOrder: 0
  m_LocalEulerAnglesHint: {x: 0, y: -40, z: 0}
--- !u!114 &1432515446063595733
MonoBehaviour:
  m_ObjectHideFlags: 0
  m_CorrespondingSourceObject: {fileID: 0}
  m_PrefabInstance: {fileID: 0}
  m_PrefabAsset: {fileID: 0}
  m_GameObject: {fileID: 1432515446063595729}
  m_Enabled: 1
  m_EditorHideFlags: 0
  m_Script: {fileID: 11500000, guid: 8233d90336aea43098adf6dbabd606a2, type: 3}
  m_Name: 
  m_EditorClassIdentifier: 
  m_MeshFormatVersion: 1
  m_Faces:
  - m_Indexes: 000000000100000002000000010000000300000002000000
    m_SmoothingGroup: 0
    m_Uv:
      m_UseWorldSpace: 0
      m_FlipU: 0
      m_FlipV: 0
      m_SwapUV: 0
      m_Fill: 1
      m_Scale: {x: 1, y: 1}
      m_Offset: {x: 0, y: 0}
      m_Rotation: 0
      m_Anchor: 9
    m_Material: {fileID: 0}
    m_SubmeshIndex: 0
    m_ManualUV: 0
    elementGroup: -1
    m_TextureGroup: -1
  - m_Indexes: 040000000500000006000000050000000700000006000000
    m_SmoothingGroup: 0
    m_Uv:
      m_UseWorldSpace: 0
      m_FlipU: 0
      m_FlipV: 0
      m_SwapUV: 0
      m_Fill: 1
      m_Scale: {x: 1, y: 1}
      m_Offset: {x: 0, y: 0}
      m_Rotation: 0
      m_Anchor: 9
    m_Material: {fileID: 0}
    m_SubmeshIndex: 0
    m_ManualUV: 0
    elementGroup: -1
    m_TextureGroup: -1
  - m_Indexes: 08000000090000000a000000090000000b0000000a000000
    m_SmoothingGroup: 0
    m_Uv:
      m_UseWorldSpace: 0
      m_FlipU: 0
      m_FlipV: 0
      m_SwapUV: 0
      m_Fill: 1
      m_Scale: {x: 1, y: 1}
      m_Offset: {x: 0, y: 0}
      m_Rotation: 0
      m_Anchor: 9
    m_Material: {fileID: 0}
    m_SubmeshIndex: 0
    m_ManualUV: 0
    elementGroup: -1
    m_TextureGroup: -1
  - m_Indexes: 0c0000000d0000000e0000000d0000000f0000000e000000
    m_SmoothingGroup: 0
    m_Uv:
      m_UseWorldSpace: 0
      m_FlipU: 0
      m_FlipV: 0
      m_SwapUV: 0
      m_Fill: 1
      m_Scale: {x: 1, y: 1}
      m_Offset: {x: 0, y: 0}
      m_Rotation: 0
      m_Anchor: 9
    m_Material: {fileID: 0}
    m_SubmeshIndex: 0
    m_ManualUV: 0
    elementGroup: -1
    m_TextureGroup: -1
  - m_Indexes: 100000001100000012000000110000001300000012000000
    m_SmoothingGroup: 0
    m_Uv:
      m_UseWorldSpace: 0
      m_FlipU: 0
      m_FlipV: 0
      m_SwapUV: 0
      m_Fill: 1
      m_Scale: {x: 1, y: 1}
      m_Offset: {x: 0, y: 0}
      m_Rotation: 0
      m_Anchor: 9
    m_Material: {fileID: 0}
    m_SubmeshIndex: 0
    m_ManualUV: 0
    elementGroup: -1
    m_TextureGroup: -1
  - m_Indexes: 140000001500000016000000150000001700000016000000
    m_SmoothingGroup: 0
    m_Uv:
      m_UseWorldSpace: 0
      m_FlipU: 0
      m_FlipV: 0
      m_SwapUV: 0
      m_Fill: 1
      m_Scale: {x: 1, y: 1}
      m_Offset: {x: 0, y: 0}
      m_Rotation: 0
      m_Anchor: 9
    m_Material: {fileID: 0}
    m_SubmeshIndex: 0
    m_ManualUV: 0
    elementGroup: -1
    m_TextureGroup: -1
  - m_Indexes: 18000000190000001a000000190000001b0000001a000000
    m_SmoothingGroup: 0
    m_Uv:
      m_UseWorldSpace: 0
      m_FlipU: 0
      m_FlipV: 0
      m_SwapUV: 0
      m_Fill: 1
      m_Scale: {x: 1, y: 1}
      m_Offset: {x: 0, y: 0}
      m_Rotation: 0
      m_Anchor: 9
    m_Material: {fileID: 0}
    m_SubmeshIndex: 0
    m_ManualUV: 0
    elementGroup: -1
    m_TextureGroup: -1
  - m_Indexes: 1c0000001d0000001e0000001d0000001f0000001e000000
    m_SmoothingGroup: 0
    m_Uv:
      m_UseWorldSpace: 0
      m_FlipU: 0
      m_FlipV: 0
      m_SwapUV: 0
      m_Fill: 1
      m_Scale: {x: 1, y: 1}
      m_Offset: {x: 0, y: 0}
      m_Rotation: 0
      m_Anchor: 9
    m_Material: {fileID: 0}
    m_SubmeshIndex: 0
    m_ManualUV: 0
    elementGroup: -1
    m_TextureGroup: -1
  - m_Indexes: 200000002100000022000000210000002300000022000000
    m_SmoothingGroup: 0
    m_Uv:
      m_UseWorldSpace: 0
      m_FlipU: 0
      m_FlipV: 0
      m_SwapUV: 0
      m_Fill: 1
      m_Scale: {x: 1, y: 1}
      m_Offset: {x: 0, y: 0}
      m_Rotation: 0
      m_Anchor: 9
    m_Material: {fileID: 0}
    m_SubmeshIndex: 0
    m_ManualUV: 0
    elementGroup: -1
    m_TextureGroup: -1
  - m_Indexes: 240000002500000026000000250000002700000026000000
    m_SmoothingGroup: 0
    m_Uv:
      m_UseWorldSpace: 0
      m_FlipU: 0
      m_FlipV: 0
      m_SwapUV: 0
      m_Fill: 1
      m_Scale: {x: 1, y: 1}
      m_Offset: {x: 0, y: 0}
      m_Rotation: 0
      m_Anchor: 9
    m_Material: {fileID: 0}
    m_SubmeshIndex: 0
    m_ManualUV: 0
    elementGroup: -1
    m_TextureGroup: -1
  - m_Indexes: 28000000290000002a000000290000002b0000002a000000
    m_SmoothingGroup: 0
    m_Uv:
      m_UseWorldSpace: 0
      m_FlipU: 0
      m_FlipV: 0
      m_SwapUV: 0
      m_Fill: 1
      m_Scale: {x: 1, y: 1}
      m_Offset: {x: 0, y: 0}
      m_Rotation: 0
      m_Anchor: 9
    m_Material: {fileID: 0}
    m_SubmeshIndex: 0
    m_ManualUV: 0
    elementGroup: -1
    m_TextureGroup: -1
  - m_Indexes: 2c0000002d0000002e0000002d0000002f0000002e000000
    m_SmoothingGroup: 0
    m_Uv:
      m_UseWorldSpace: 0
      m_FlipU: 0
      m_FlipV: 0
      m_SwapUV: 0
      m_Fill: 1
      m_Scale: {x: 1, y: 1}
      m_Offset: {x: 0, y: 0}
      m_Rotation: 0
      m_Anchor: 9
    m_Material: {fileID: 0}
    m_SubmeshIndex: 0
    m_ManualUV: 0
    elementGroup: -1
    m_TextureGroup: -1
  - m_Indexes: 300000003100000032000000310000003300000032000000
    m_SmoothingGroup: 0
    m_Uv:
      m_UseWorldSpace: 0
      m_FlipU: 0
      m_FlipV: 0
      m_SwapUV: 0
      m_Fill: 1
      m_Scale: {x: 1, y: 1}
      m_Offset: {x: 0, y: 0}
      m_Rotation: 0
      m_Anchor: 9
    m_Material: {fileID: 0}
    m_SubmeshIndex: 0
    m_ManualUV: 0
    elementGroup: -1
    m_TextureGroup: -1
  - m_Indexes: 340000003500000036000000350000003700000036000000
    m_SmoothingGroup: 0
    m_Uv:
      m_UseWorldSpace: 0
      m_FlipU: 0
      m_FlipV: 0
      m_SwapUV: 0
      m_Fill: 1
      m_Scale: {x: 1, y: 1}
      m_Offset: {x: 0, y: 0}
      m_Rotation: 0
      m_Anchor: 9
    m_Material: {fileID: 0}
    m_SubmeshIndex: 0
    m_ManualUV: 0
    elementGroup: -1
    m_TextureGroup: -1
  - m_Indexes: 38000000390000003a000000390000003b0000003a000000
    m_SmoothingGroup: 0
    m_Uv:
      m_UseWorldSpace: 0
      m_FlipU: 0
      m_FlipV: 0
      m_SwapUV: 0
      m_Fill: 1
      m_Scale: {x: 1, y: 1}
      m_Offset: {x: 0, y: 0}
      m_Rotation: 0
      m_Anchor: 9
    m_Material: {fileID: 0}
    m_SubmeshIndex: 0
    m_ManualUV: 0
    elementGroup: -1
    m_TextureGroup: -1
  - m_Indexes: 3c0000003d0000003e0000003d0000003f0000003e000000
    m_SmoothingGroup: 0
    m_Uv:
      m_UseWorldSpace: 0
      m_FlipU: 0
      m_FlipV: 0
      m_SwapUV: 0
      m_Fill: 1
      m_Scale: {x: 1, y: 1}
      m_Offset: {x: 0, y: 0}
      m_Rotation: 0
      m_Anchor: 9
    m_Material: {fileID: 0}
    m_SubmeshIndex: 0
    m_ManualUV: 0
    elementGroup: -1
    m_TextureGroup: -1
  - m_Indexes: 400000004100000042000000410000004300000042000000
    m_SmoothingGroup: 0
    m_Uv:
      m_UseWorldSpace: 0
      m_FlipU: 0
      m_FlipV: 0
      m_SwapUV: 0
      m_Fill: 1
      m_Scale: {x: 1, y: 1}
      m_Offset: {x: 0, y: 0}
      m_Rotation: 0
      m_Anchor: 9
    m_Material: {fileID: 0}
    m_SubmeshIndex: 0
    m_ManualUV: 0
    elementGroup: -1
    m_TextureGroup: -1
  - m_Indexes: 440000004500000046000000450000004700000046000000
    m_SmoothingGroup: 0
    m_Uv:
      m_UseWorldSpace: 0
      m_FlipU: 0
      m_FlipV: 0
      m_SwapUV: 0
      m_Fill: 1
      m_Scale: {x: 1, y: 1}
      m_Offset: {x: 0, y: 0}
      m_Rotation: 0
      m_Anchor: 9
    m_Material: {fileID: 0}
    m_SubmeshIndex: 0
    m_ManualUV: 0
    elementGroup: -1
    m_TextureGroup: -1
  - m_Indexes: 48000000490000004a000000490000004b0000004a000000
    m_SmoothingGroup: 0
    m_Uv:
      m_UseWorldSpace: 0
      m_FlipU: 0
      m_FlipV: 0
      m_SwapUV: 0
      m_Fill: 1
      m_Scale: {x: 1, y: 1}
      m_Offset: {x: 0, y: 0}
      m_Rotation: 0
      m_Anchor: 9
    m_Material: {fileID: 0}
    m_SubmeshIndex: 0
    m_ManualUV: 0
    elementGroup: -1
    m_TextureGroup: -1
  - m_Indexes: 4c0000004d0000004e0000004d0000004f0000004e000000
    m_SmoothingGroup: 0
    m_Uv:
      m_UseWorldSpace: 0
      m_FlipU: 0
      m_FlipV: 0
      m_SwapUV: 0
      m_Fill: 1
      m_Scale: {x: 1, y: 1}
      m_Offset: {x: 0, y: 0}
      m_Rotation: 0
      m_Anchor: 9
    m_Material: {fileID: 0}
    m_SubmeshIndex: 0
    m_ManualUV: 0
    elementGroup: -1
    m_TextureGroup: -1
  - m_Indexes: 500000005100000052000000510000005300000052000000
    m_SmoothingGroup: 0
    m_Uv:
      m_UseWorldSpace: 0
      m_FlipU: 0
      m_FlipV: 0
      m_SwapUV: 0
      m_Fill: 1
      m_Scale: {x: 1, y: 1}
      m_Offset: {x: 0, y: 0}
      m_Rotation: 0
      m_Anchor: 9
    m_Material: {fileID: 0}
    m_SubmeshIndex: 0
    m_ManualUV: 0
    elementGroup: -1
    m_TextureGroup: -1
  - m_Indexes: 540000005500000056000000550000005700000056000000
    m_SmoothingGroup: 0
    m_Uv:
      m_UseWorldSpace: 0
      m_FlipU: 0
      m_FlipV: 0
      m_SwapUV: 0
      m_Fill: 1
      m_Scale: {x: 1, y: 1}
      m_Offset: {x: 0, y: 0}
      m_Rotation: 0
      m_Anchor: 9
    m_Material: {fileID: 0}
    m_SubmeshIndex: 0
    m_ManualUV: 0
    elementGroup: -1
    m_TextureGroup: -1
  - m_Indexes: 58000000590000005a000000590000005b0000005a000000
    m_SmoothingGroup: 0
    m_Uv:
      m_UseWorldSpace: 0
      m_FlipU: 0
      m_FlipV: 0
      m_SwapUV: 0
      m_Fill: 1
      m_Scale: {x: 1, y: 1}
      m_Offset: {x: 0, y: 0}
      m_Rotation: 0
      m_Anchor: 9
    m_Material: {fileID: 0}
    m_SubmeshIndex: 0
    m_ManualUV: 0
    elementGroup: -1
    m_TextureGroup: -1
  - m_Indexes: 5c0000005d0000005e0000005d0000005f0000005e000000
    m_SmoothingGroup: 0
    m_Uv:
      m_UseWorldSpace: 0
      m_FlipU: 0
      m_FlipV: 0
      m_SwapUV: 0
      m_Fill: 1
      m_Scale: {x: 1, y: 1}
      m_Offset: {x: 0, y: 0}
      m_Rotation: 0
      m_Anchor: 9
    m_Material: {fileID: 0}
    m_SubmeshIndex: 0
    m_ManualUV: 0
    elementGroup: -1
    m_TextureGroup: -1
  - m_Indexes: 600000006100000062000000610000006300000062000000
    m_SmoothingGroup: 0
    m_Uv:
      m_UseWorldSpace: 0
      m_FlipU: 0
      m_FlipV: 0
      m_SwapUV: 0
      m_Fill: 1
      m_Scale: {x: 1, y: 1}
      m_Offset: {x: 0, y: 0}
      m_Rotation: 0
      m_Anchor: 9
    m_Material: {fileID: 0}
    m_SubmeshIndex: 0
    m_ManualUV: 0
    elementGroup: -1
    m_TextureGroup: -1
  - m_Indexes: 640000006500000066000000650000006700000066000000
    m_SmoothingGroup: 0
    m_Uv:
      m_UseWorldSpace: 0
      m_FlipU: 0
      m_FlipV: 0
      m_SwapUV: 0
      m_Fill: 1
      m_Scale: {x: 1, y: 1}
      m_Offset: {x: 0, y: 0}
      m_Rotation: 0
      m_Anchor: 9
    m_Material: {fileID: 0}
    m_SubmeshIndex: 0
    m_ManualUV: 0
    elementGroup: -1
    m_TextureGroup: -1
  - m_Indexes: 68000000690000006a000000690000006b0000006a000000
    m_SmoothingGroup: 0
    m_Uv:
      m_UseWorldSpace: 0
      m_FlipU: 0
      m_FlipV: 0
      m_SwapUV: 0
      m_Fill: 1
      m_Scale: {x: 1, y: 1}
      m_Offset: {x: 0, y: 0}
      m_Rotation: 0
      m_Anchor: 9
    m_Material: {fileID: 0}
    m_SubmeshIndex: 0
    m_ManualUV: 0
    elementGroup: -1
    m_TextureGroup: -1
  - m_Indexes: 6c0000006d0000006e0000006d0000006f0000006e000000
    m_SmoothingGroup: 0
    m_Uv:
      m_UseWorldSpace: 0
      m_FlipU: 0
      m_FlipV: 0
      m_SwapUV: 0
      m_Fill: 1
      m_Scale: {x: 1, y: 1}
      m_Offset: {x: 0, y: 0}
      m_Rotation: 0
      m_Anchor: 9
    m_Material: {fileID: 0}
    m_SubmeshIndex: 0
    m_ManualUV: 0
    elementGroup: -1
    m_TextureGroup: -1
  - m_Indexes: 700000007100000072000000710000007300000072000000
    m_SmoothingGroup: 0
    m_Uv:
      m_UseWorldSpace: 0
      m_FlipU: 0
      m_FlipV: 0
      m_SwapUV: 0
      m_Fill: 1
      m_Scale: {x: 1, y: 1}
      m_Offset: {x: 0, y: 0}
      m_Rotation: 0
      m_Anchor: 9
    m_Material: {fileID: 0}
    m_SubmeshIndex: 0
    m_ManualUV: 0
    elementGroup: -1
    m_TextureGroup: -1
  - m_Indexes: 740000007500000076000000750000007700000076000000
    m_SmoothingGroup: 0
    m_Uv:
      m_UseWorldSpace: 0
      m_FlipU: 0
      m_FlipV: 0
      m_SwapUV: 0
      m_Fill: 1
      m_Scale: {x: 1, y: 1}
      m_Offset: {x: 0, y: 0}
      m_Rotation: 0
      m_Anchor: 9
    m_Material: {fileID: 0}
    m_SubmeshIndex: 0
    m_ManualUV: 0
    elementGroup: -1
    m_TextureGroup: -1
  m_SharedVertices:
  - m_Vertices: 000000000d00000016000000
  - m_Vertices: 010000000400000017000000
  - m_Vertices: 020000000f000000280000002d0000004900000050000000
  - m_Vertices: 1d0000004b00000052000000
  - m_Vertices: 180000003a0000003f000000
  - m_Vertices: 2a0000002f000000380000003d000000
  - m_Vertices: 100000002c000000350000005100000054000000
  - m_Vertices: 1f0000005300000056000000
  - m_Vertices: 1a0000003e00000047000000
  - m_Vertices: 2e000000370000003c00000045000000
  - m_Vertices: 03000000060000002900000030000000580000005d000000
  - m_Vertices: 200000005a0000005f000000
  - m_Vertices: 190000003b00000042000000
  - m_Vertices: 2b000000320000003900000040000000
  - m_Vertices: 1100000031000000340000005c00000065000000
  - m_Vertices: 220000005e00000067000000
  - m_Vertices: 1b0000004300000046000000
  - m_Vertices: 33000000360000004100000044000000
  - m_Vertices: 050000000800000015000000
  - m_Vertices: 070000000a0000005900000060000000680000006d000000
  - m_Vertices: 240000006a0000006f000000
  - m_Vertices: 210000005b00000062000000
  - m_Vertices: 1300000061000000640000006c00000075000000
  - m_Vertices: 260000006e00000077000000
  - m_Vertices: 230000006300000066000000
  - m_Vertices: 090000000c00000014000000
  - m_Vertices: 0b0000000e000000480000004d0000006900000070000000
  - m_Vertices: 250000006b00000072000000
  - m_Vertices: 1c0000004a0000004f000000
  - m_Vertices: 120000004c000000550000007100000074000000
  - m_Vertices: 270000007300000076000000
  - m_Vertices: 1e0000004e00000057000000
  m_SharedTextures: []
  m_Positions:
  - {x: 0, y: 0, z: 0}
  - {x: 0.45, y: 0, z: 0}
  - {x: 0, y: 0.6, z: 0}
  - {x: 0.45, y: 0.6, z: 0}
  - {x: 0.45, y: 0, z: 0}
  - {x: 0.45, y: 0, z: -0.7}
  - {x: 0.45, y: 0.6, z: 0}
  - {x: 0.45, y: 0.6, z: -0.7}
  - {x: 0.45, y: 0, z: -0.7}
  - {x: 0, y: 0, z: -0.7}
  - {x: 0.45, y: 0.6, z: -0.7}
  - {x: 0, y: 0.6, z: -0.7}
  - {x: 0, y: 0, z: -0.7}
  - {x: 0, y: 0, z: 0}
  - {x: 0, y: 0.6, z: -0.7}
  - {x: 0, y: 0.6, z: 0}
  - {x: 0, y: 0.10010004, z: 0}
  - {x: 0.4499998, y: 0.10010004, z: 0}
  - {x: 0, y: 0.10010004, z: -0.6999998}
  - {x: 0.4499998, y: 0.10010004, z: -0.6999998}
  - {x: 0, y: 0, z: -0.7}
  - {x: 0.45, y: 0, z: -0.7}
  - {x: 0, y: 0, z: 0}
  - {x: 0.45, y: 0, z: 0}
  - {x: 0, y: 0.6, z: -0.052099228}
  - {x: 0.4499998, y: 0.6, z: -0.052099228}
  - {x: 0, y: 0.10010004, z: -0.052099228}
  - {x: 0.4499998, y: 0.10010004, z: -0.052099228}
  - {x: 0.030100822, y: 0.6, z: -0.6999998}
  - {x: 0.030100822, y: 0.6, z: 0}
  - {x: 0.030100822, y: 0.10010004, z: -0.6999998}
  - {x: 0.030100822, y: 0.10010004, z: 0}
  - {x: 0.42190075, y: 0.6, z: 0}
  - {x: 0.42190075, y: 0.6, z: -0.6999998}
  - {x: 0.42190075, y: 0.10010004, z: 0}
  - {x: 0.42190075, y: 0.10010004, z: -0.6999998}
  - {x: 0.4499998, y: 0.6, z: -0.6638994}
  - {x: 0, y: 0.6, z: -0.6638994}
  - {x: 0.4499998, y: 0.10010004, z: -0.6638994}
  - {x: 0, y: 0.10010004, z: -0.6638994}
  - {x: 0, y: 0.6, z: 0}
  - {x: 0.45, y: 0.6, z: 0}
  - {x: 0, y: 0.6, z: -0.01709938}
  - {x: 0.4499998, y: 0.6, z: -0.01709938}
  - {x: 0, y: 0.10010004, z: 0}
  - {x: 0, y: 0.6, z: 0}
  - {x: 0, y: 0.10010004, z: -0.01709938}
  - {x: 0, y: 0.6, z: -0.01709938}
  - {x: 0.45, y: 0.6, z: 0}
  - {x: 0.4499998, y: 0.10010004, z: 0}
  - {x: 0.4499998, y: 0.6, z: -0.01709938}
  - {x: 0.4499998, y: 0.10010004, z: -0.01709938}
  - {x: 0.4499998, y: 0.10010004, z: 0}
  - {x: 0, y: 0.10010004, z: 0}
  - {x: 0.4499998, y: 0.10010004, z: -0.01709938}
  - {x: 0, y: 0.10010004, z: -0.01709938}
  - {x: 0, y: 0.6, z: -0.01709938}
  - {x: 0.4499998, y: 0.6, z: -0.01709938}
  - {x: 0, y: 0.6, z: -0.052099228}
  - {x: 0.4499998, y: 0.6, z: -0.052099228}
  - {x: 0, y: 0.10010004, z: -0.01709938}
  - {x: 0, y: 0.6, z: -0.01709938}
  - {x: 0, y: 0.10010004, z: -0.052099228}
  - {x: 0, y: 0.6, z: -0.052099228}
  - {x: 0.4499998, y: 0.6, z: -0.01709938}
  - {x: 0.4499998, y: 0.10010004, z: -0.01709938}
  - {x: 0.4499998, y: 0.6, z: -0.052099228}
  - {x: 0.4499998, y: 0.10010004, z: -0.052099228}
  - {x: 0.4499998, y: 0.10010004, z: -0.01709938}
  - {x: 0, y: 0.10010004, z: -0.01709938}
  - {x: 0.4499998, y: 0.10010004, z: -0.052099228}
  - {x: 0, y: 0.10010004, z: -0.052099228}
  - {x: 0, y: 0.6, z: -0.7}
  - {x: 0, y: 0.6, z: 0}
  - {x: 0.030100822, y: 0.6, z: -0.6999998}
  - {x: 0.030100822, y: 0.6, z: 0}
  - {x: 0, y: 0.10010004, z: -0.6999998}
  - {x: 0, y: 0.6, z: -0.7}
  - {x: 0.030100822, y: 0.10010004, z: -0.6999998}
  - {x: 0.030100822, y: 0.6, z: -0.6999998}
  - {x: 0, y: 0.6, z: 0}
  - {x: 0, y: 0.10010004, z: 0}
  - {x: 0.030100822, y: 0.6, z: 0}
  - {x: 0.030100822, y: 0.10010004, z: 0}
  - {x: 0, y: 0.10010004, z: 0}
  - {x: 0, y: 0.10010004, z: -0.6999998}
  - {x: 0.030100822, y: 0.10010004, z: 0}
  - {x: 0.030100822, y: 0.10010004, z: -0.6999998}
  - {x: 0.45, y: 0.6, z: 0}
  - {x: 0.45, y: 0.6, z: -0.7}
  - {x: 0.42190075, y: 0.6, z: 0}
  - {x: 0.42190075, y: 0.6, z: -0.6999998}
  - {x: 0.4499998, y: 0.10010004, z: 0}
  - {x: 0.45, y: 0.6, z: 0}
  - {x: 0.42190075, y: 0.10010004, z: 0}
  - {x: 0.42190075, y: 0.6, z: 0}
  - {x: 0.45, y: 0.6, z: -0.7}
  - {x: 0.4499998, y: 0.10010004, z: -0.6999998}
  - {x: 0.42190075, y: 0.6, z: -0.6999998}
  - {x: 0.42190075, y: 0.10010004, z: -0.6999998}
  - {x: 0.4499998, y: 0.10010004, z: -0.6999998}
  - {x: 0.4499998, y: 0.10010004, z: 0}
  - {x: 0.42190075, y: 0.10010004, z: -0.6999998}
  - {x: 0.42190075, y: 0.10010004, z: 0}
  - {x: 0.45, y: 0.6, z: -0.7}
  - {x: 0, y: 0.6, z: -0.7}
  - {x: 0.4499998, y: 0.6, z: -0.6638994}
  - {x: 0, y: 0.6, z: -0.6638994}
  - {x: 0.4499998, y: 0.10010004, z: -0.6999998}
  - {x: 0.45, y: 0.6, z: -0.7}
  - {x: 0.4499998, y: 0.10010004, z: -0.6638994}
  - {x: 0.4499998, y: 0.6, z: -0.6638994}
  - {x: 0, y: 0.6, z: -0.7}
  - {x: 0, y: 0.10010004, z: -0.6999998}
  - {x: 0, y: 0.6, z: -0.6638994}
  - {x: 0, y: 0.10010004, z: -0.6638994}
  - {x: 0, y: 0.10010004, z: -0.6999998}
  - {x: 0.4499998, y: 0.10010004, z: -0.6999998}
  - {x: 0, y: 0.10010004, z: -0.6638994}
  - {x: 0.4499998, y: 0.10010004, z: -0.6638994}
  m_Textures0:
  - {x: 0, y: 0}
  - {x: -0.45, y: 0}
  - {x: 0, y: 0.6}
  - {x: -0.45, y: 0.6}
  - {x: 0, y: 0}
  - {x: -0.7, y: 0}
  - {x: 0, y: 0.6}
  - {x: -0.7, y: 0.6}
  - {x: 0.45, y: 0}
  - {x: 0, y: 0}
  - {x: 0.45, y: 0.6}
  - {x: 0, y: 0.6}
  - {x: 0.7, y: 0}
  - {x: 0, y: 0}
  - {x: 0.7, y: 0.6}
  - {x: 0, y: 0.6}
  - {x: 0, y: 0}
  - {x: 0.4499998, y: 0}
  - {x: 0, y: -0.6999998}
  - {x: 0.4499998, y: -0.6999998}
  - {x: 0, y: -0.7}
  - {x: -0.45, y: -0.7}
  - {x: 0, y: 0}
  - {x: -0.45, y: 0}
  - {x: 0, y: 0.6}
  - {x: 0.4499998, y: 0.6}
  - {x: 0, y: 0.10010004}
  - {x: 0.4499998, y: 0.10010004}
  - {x: -0.6999998, y: 0.6}
  - {x: 0, y: 0.6}
  - {x: -0.6999998, y: 0.10010004}
  - {x: 0, y: 0.10010004}
  - {x: 0, y: 0.6}
  - {x: 0.6999998, y: 0.6}
  - {x: 0, y: 0.10010004}
  - {x: 0.6999998, y: 0.10010004}
  - {x: -0.4499998, y: 0.6}
  - {x: 0, y: 0.6}
  - {x: -0.4499998, y: 0.10010004}
  - {x: 0, y: 0.10010004}
  - {x: 0, y: 0}
  - {x: 0.45, y: 0}
  - {x: 0, y: -0.01709938}
  - {x: 0.4499998, y: -0.01709938}
  - {x: 0, y: 0.10010004}
  - {x: 0, y: 0.6}
  - {x: 0.01709938, y: 0.10010004}
  - {x: 0.01709938, y: 0.6}
  - {x: 0.0000047058, y: 0.6000002}
  - {x: 0.0000047057983, y: 0.100100204}
  - {x: -0.017094675, y: 0.6000002}
  - {x: -0.017094675, y: 0.100100204}
  - {x: -0.4499998, y: 0}
  - {x: 0, y: 0}
  - {x: -0.4499998, y: -0.01709938}
  - {x: 0, y: -0.01709938}
  - {x: 0, y: -0.01709938}
  - {x: 0.4499998, y: -0.01709938}
  - {x: 0, y: -0.052099228}
  - {x: 0.4499998, y: -0.052099228}
  - {x: 0.01709938, y: 0.10010004}
  - {x: 0.01709938, y: 0.6}
  - {x: 0.052099228, y: 0.10010004}
  - {x: 0.052099228, y: 0.6}
  - {x: -0.01709938, y: 0.6}
  - {x: -0.01709938, y: 0.10010004}
  - {x: -0.052099228, y: 0.6}
  - {x: -0.052099228, y: 0.10010004}
  - {x: -0.4499998, y: -0.01709938}
  - {x: 0, y: -0.01709938}
  - {x: -0.4499998, y: -0.052099228}
  - {x: 0, y: -0.052099228}
  - {x: 0, y: -0.7}
  - {x: 0, y: 0}
  - {x: 0.030100822, y: -0.6999998}
  - {x: 0.030100822, y: 0}
  - {x: 0, y: 0.100100294}
  - {x: 0, y: 0.60000026}
  - {x: 0.030100822, y: 0.100100294}
  - {x: 0.030100822, y: 0.60000026}
  - {x: 0, y: 0.6}
  - {x: 0, y: 0.10010004}
  - {x: -0.030100822, y: 0.6}
  - {x: -0.030100822, y: 0.10010004}
  - {x: 0, y: 0}
  - {x: 0, y: -0.6999998}
  - {x: -0.030100822, y: 0}
  - {x: -0.030100822, y: -0.6999998}
  - {x: 0.45, y: 0}
  - {x: 0.45, y: -0.7}
  - {x: 0.42190075, y: 0}
  - {x: 0.42190075, y: -0.6999998}
  - {x: -0.4499998, y: 0.10010004}
  - {x: -0.45, y: 0.6}
  - {x: -0.42190075, y: 0.10010004}
  - {x: -0.42190075, y: 0.6}
  - {x: 0.45000443, y: 0.60000026}
  - {x: 0.45000425, y: 0.100100294}
  - {x: 0.4219052, y: 0.60000026}
  - {x: 0.4219052, y: 0.100100294}
  - {x: -0.4499998, y: -0.6999998}
  - {x: -0.4499998, y: 0}
  - {x: -0.42190075, y: -0.6999998}
  - {x: -0.42190075, y: 0}
  - {x: 0.45, y: -0.7}
  - {x: 0, y: -0.7}
  - {x: 0.4499998, y: -0.6638994}
  - {x: 0, y: -0.6638994}
  - {x: -0.6999998, y: 0.100100204}
  - {x: -0.7, y: 0.6000002}
  - {x: -0.6638994, y: 0.100100204}
  - {x: -0.6638994, y: 0.6000002}
  - {x: 0.7, y: 0.6}
  - {x: 0.6999998, y: 0.10010004}
  - {x: 0.6638994, y: 0.6}
  - {x: 0.6638994, y: 0.10010004}
  - {x: 0, y: -0.6999998}
  - {x: -0.4499998, y: -0.6999998}
  - {x: 0, y: -0.6638994}
  - {x: -0.4499998, y: -0.6638994}
  m_Textures2: []
  m_Textures3: []
  m_Tangents:
  - {x: -1, y: 0, z: 0, w: -1}
  - {x: -1, y: 0, z: 0, w: -1}
  - {x: -1, y: 0, z: 0, w: -1}
  - {x: -1, y: 0, z: 0, w: -1}
  - {x: 0, y: 0, z: 1, w: -1}
  - {x: 0, y: 0, z: 1, w: -1}
  - {x: 0, y: 0, z: 1, w: -1}
  - {x: 0, y: 0, z: 1, w: -1}
  - {x: 1, y: 0, z: 0, w: -1}
  - {x: 1, y: 0, z: 0, w: -1}
  - {x: 1, y: 0, z: 0, w: -1}
  - {x: 1, y: 0, z: 0, w: -1}
  - {x: 0, y: 0, z: -1, w: -1}
  - {x: 0, y: 0, z: -1, w: -1}
  - {x: 0, y: 0, z: -1, w: -1}
  - {x: 0, y: 0, z: -1, w: -1}
  - {x: 1, y: 0, z: 0, w: -1}
  - {x: 1, y: 0, z: 0, w: -1}
  - {x: 1, y: 0, z: 0, w: -1}
  - {x: 1, y: 0, z: 0, w: -1}
  - {x: -1, y: 0, z: 0, w: -1}
  - {x: -1, y: 0, z: 0, w: -1}
  - {x: -1, y: 0, z: 0, w: -1}
  - {x: -1, y: 0, z: 0, w: -1}
  - {x: 1, y: 0, z: 0, w: -1}
  - {x: 1, y: 0, z: 0, w: -1}
  - {x: 1, y: 0, z: 0, w: -1}
  - {x: 1, y: 0, z: 0, w: -1}
  - {x: 0, y: 0, z: 1, w: -1}
  - {x: 0, y: 0, z: 1, w: -1}
  - {x: 0, y: 0, z: 1, w: -1}
  - {x: 0, y: 0, z: 1, w: -1}
  - {x: 0, y: 0, z: -1, w: -1}
  - {x: 0, y: 0, z: -1, w: -1}
  - {x: 0, y: 0, z: -1, w: -1}
  - {x: 0, y: 0, z: -1, w: -1}
  - {x: -1, y: 0, z: 0, w: -1}
  - {x: -1, y: 0, z: 0, w: -1}
  - {x: -1, y: 0, z: 0, w: -1}
  - {x: -1, y: 0, z: 0, w: -1}
  - {x: 1, y: 0, z: 0, w: -1}
  - {x: 1, y: 0, z: 0, w: -1}
  - {x: 1, y: 0, z: 0, w: -1}
  - {x: 1, y: 0, z: 0, w: -1}
  - {x: 0, y: 0, z: -1, w: -1}
  - {x: 0, y: 0, z: -1, w: -1}
  - {x: 0, y: 0, z: -1, w: -1}
  - {x: 0, y: 0, z: -1, w: -1}
  - {x: 0.000010457334, y: 0, z: 1, w: -1}
  - {x: 0.000005228667, y: 0, z: 1, w: -1}
  - {x: 0.000005228667, y: 0, z: 1, w: -1}
  - {x: 0, y: 0, z: 1, w: -1}
  - {x: -1, y: 0, z: 0, w: -1}
  - {x: -1, y: 0, z: 0, w: -1}
  - {x: -1, y: 0, z: 0, w: -1}
  - {x: -1, y: 0, z: 0, w: -1}
  - {x: 1, y: 0, z: 0, w: -1}
  - {x: 1, y: 0, z: 0, w: -1}
  - {x: 1, y: 0, z: 0, w: -1}
  - {x: 1, y: 0, z: 0, w: -1}
  - {x: 0, y: 0, z: -1, w: -1}
  - {x: 0, y: 0, z: -1, w: -1}
  - {x: 0, y: 0, z: -1, w: -1}
  - {x: 0, y: 0, z: -1, w: -1}
  - {x: 0, y: 0, z: 1, w: -1}
  - {x: 0, y: 0, z: 1, w: -1}
  - {x: 0, y: 0, z: 1, w: -1}
  - {x: 0, y: 0, z: 1, w: -1}
  - {x: -1, y: 0, z: 0, w: -1}
  - {x: -1, y: 0, z: 0, w: -1}
  - {x: -1, y: 0, z: 0, w: -1}
  - {x: -1, y: 0, z: 0, w: -1}
  - {x: 1, y: 0, z: 0, w: -1}
  - {x: 1, y: 0, z: 0, w: -1}
  - {x: 1, y: 0, z: 0, w: -1}
  - {x: 1, y: 0, z: 0, w: -1}
  - {x: 1, y: 0, z: 0, w: -1}
  - {x: 1, y: 0, z: 0.00000297025, w: -1}
  - {x: 1, y: 0, z: 0.00000297025, w: -1}
  - {x: 1, y: 0, z: 0.0000059405, w: -1}
  - {x: -1, y: 0, z: 0, w: -1}
  - {x: -1, y: 0, z: 0, w: -1}
  - {x: -1, y: 0, z: 0, w: -1}
  - {x: -1, y: 0, z: 0, w: -1}
  - {x: -1, y: 0, z: 0, w: -1}
  - {x: -1, y: 0, z: 0, w: -1}
  - {x: -1, y: 0, z: 0, w: -1}
  - {x: -1, y: 0, z: 0, w: -1}
  - {x: 1, y: 0, z: 0, w: -1}
  - {x: 1, y: 0, z: 0, w: -1}
  - {x: 1, y: 0, z: 0, w: -1}
  - {x: 1, y: 0, z: 0, w: -1}
  - {x: -1, y: 0, z: 0, w: -1}
  - {x: -1, y: 0, z: 0, w: -1}
  - {x: -1, y: 0, z: 0, w: -1}
  - {x: -1, y: 0, z: 0, w: -1}
  - {x: 1, y: 0, z: -0.0000063636576, w: -1}
  - {x: 1, y: 0, z: -0.0000031818288, w: -1}
  - {x: 1, y: 0, z: -0.0000031818288, w: -1}
  - {x: 1, y: 0, z: 0, w: -1}
  - {x: -1, y: 0, z: 0, w: -1}
  - {x: -1, y: 0, z: 0, w: -1}
  - {x: -1, y: 0, z: 0, w: -1}
  - {x: -1, y: 0, z: 0, w: -1}
  - {x: 1, y: 0, z: 0, w: -1}
  - {x: 1, y: 0, z: 0, w: -1}
  - {x: 1, y: 0, z: 0, w: -1}
  - {x: 1, y: 0, z: 0, w: -1}
  - {x: 0, y: 0, z: 1, w: -1}
  - {x: -0.0000024766084, y: 0, z: 1, w: -1}
  - {x: -0.0000024766084, y: 0, z: 1, w: -1}
  - {x: -0.000004953217, y: 0, z: 1, w: -1}
  - {x: 0, y: 0, z: -1, w: -1}
  - {x: 0, y: 0, z: -1, w: -1}
  - {x: 0, y: 0, z: -1, w: -1}
  - {x: 0, y: 0, z: -1, w: -1}
  - {x: -1, y: 0, z: 0, w: -1}
  - {x: -1, y: 0, z: 0, w: -1}
  - {x: -1, y: 0, z: 0, w: -1}
  - {x: -1, y: 0, z: 0, w: -1}
  m_Colors: []
  m_UnwrapParameters:
    m_HardAngle: 88
    m_PackMargin: 20
    m_AngleError: 8
    m_AreaError: 15
  m_PreserveMeshAssetOnDestroy: 0
  assetGuid: 
  m_Mesh: {fileID: 0}
  m_IsSelectable: 1
  m_SelectedFaces: 
  m_SelectedEdges: []
  m_SelectedVertices: 
--- !u!23 &1432515446063595732
MeshRenderer:
  m_ObjectHideFlags: 0
  m_CorrespondingSourceObject: {fileID: 0}
  m_PrefabInstance: {fileID: 0}
  m_PrefabAsset: {fileID: 0}
  m_GameObject: {fileID: 1432515446063595729}
  m_Enabled: 1
  m_CastShadows: 1
  m_ReceiveShadows: 1
  m_DynamicOccludee: 1
  m_MotionVectors: 1
  m_LightProbeUsage: 1
  m_ReflectionProbeUsage: 1
  m_RayTracingMode: 2
  m_RenderingLayerMask: 1
  m_RendererPriority: 0
  m_Materials:
  - {fileID: 2100000, guid: c22777d6e868e4f2fb421913386b154e, type: 2}
  m_StaticBatchInfo:
    firstSubMesh: 0
    subMeshCount: 0
  m_StaticBatchRoot: {fileID: 0}
  m_ProbeAnchor: {fileID: 0}
  m_LightProbeVolumeOverride: {fileID: 0}
  m_ScaleInLightmap: 1
  m_ReceiveGI: 1
  m_PreserveUVs: 0
  m_IgnoreNormalsForChartDetection: 0
  m_ImportantGI: 0
  m_StitchLightmapSeams: 1
  m_SelectedEditorRenderState: 2
  m_MinimumChartSize: 4
  m_AutoUVMaxDistance: 0.5
  m_AutoUVMaxAngle: 89
  m_LightmapParameters: {fileID: 0}
  m_SortingLayerID: 0
  m_SortingLayer: 0
  m_SortingOrder: 0
--- !u!33 &1432515446063595731
MeshFilter:
  m_ObjectHideFlags: 0
  m_CorrespondingSourceObject: {fileID: 0}
  m_PrefabInstance: {fileID: 0}
  m_PrefabAsset: {fileID: 0}
  m_GameObject: {fileID: 1432515446063595729}
  m_Mesh: {fileID: 0}
--- !u!64 &1432515446063595730
MeshCollider:
  m_ObjectHideFlags: 0
  m_CorrespondingSourceObject: {fileID: 0}
  m_PrefabInstance: {fileID: 0}
  m_PrefabAsset: {fileID: 0}
  m_GameObject: {fileID: 1432515446063595729}
  m_Material: {fileID: 0}
  m_IsTrigger: 0
  m_Enabled: 1
  serializedVersion: 4
  m_Convex: 0
  m_CookingOptions: 30
  m_Mesh: {fileID: 0}
