%YAML 1.1
%TAG !u! tag:unity3d.com,2011:
--- !u!1 &1692846293821588495
GameObject:
  m_ObjectHideFlags: 0
  m_CorrespondingSourceObject: {fileID: 0}
  m_PrefabInstance: {fileID: 0}
  m_PrefabAsset: {fileID: 0}
  serializedVersion: 6
  m_Component:
  - component: {fileID: 8590482063525176240}
  - component: {fileID: 4847384374256146684}
  - component: {fileID: 3315486465482414796}
  - component: {fileID: 2408884685440903666}
  - component: {fileID: 8495118473935284980}
  m_Layer: 0
  m_Name: TrashCan
  m_TagString: Untagged
  m_Icon: {fileID: 0}
  m_NavMeshLayer: 0
  m_StaticEditorFlags: 0
  m_IsActive: 1
--- !u!4 &8590482063525176240
Transform:
  m_ObjectHideFlags: 0
  m_CorrespondingSourceObject: {fileID: 0}
  m_PrefabInstance: {fileID: 0}
  m_PrefabAsset: {fileID: 0}
  m_GameObject: {fileID: 1692846293821588495}
  m_LocalRotation: {x: 0, y: 0, z: 0, w: 1}
  m_LocalPosition: {x: 19.4, y: 0, z: -5.6}
  m_LocalScale: {x: 1, y: 1, z: 1}
  m_Children: []
  m_Father: {fileID: 0}
  m_RootOrder: 0
  m_LocalEulerAnglesHint: {x: 0, y: 0, z: 0}
--- !u!114 &4847384374256146684
MonoBehaviour:
  m_ObjectHideFlags: 0
  m_CorrespondingSourceObject: {fileID: 0}
  m_PrefabInstance: {fileID: 0}
  m_PrefabAsset: {fileID: 0}
  m_GameObject: {fileID: 1692846293821588495}
  m_Enabled: 1
  m_EditorHideFlags: 0
  m_Script: {fileID: 11500000, guid: 8233d90336aea43098adf6dbabd606a2, type: 3}
  m_Name: 
  m_EditorClassIdentifier: 
  m_MeshFormatVersion: 1
  m_Faces:
  - m_Indexes: 000000000100000002000000010000000300000002000000
    m_SmoothingGroup: 0
    m_Uv:
      m_UseWorldSpace: 0
      m_FlipU: 0
      m_FlipV: 0
      m_SwapUV: 0
      m_Fill: 1
      m_Scale: {x: 1, y: 1}
      m_Offset: {x: 0, y: 0}
      m_Rotation: 0
      m_Anchor: 9
    m_Material: {fileID: 0}
    m_SubmeshIndex: 0
    m_ManualUV: 0
    elementGroup: -1
    m_TextureGroup: -1
  - m_Indexes: 040000000500000006000000050000000700000006000000
    m_SmoothingGroup: 0
    m_Uv:
      m_UseWorldSpace: 0
      m_FlipU: 0
      m_FlipV: 0
      m_SwapUV: 0
      m_Fill: 1
      m_Scale: {x: 1, y: 1}
      m_Offset: {x: 0, y: 0}
      m_Rotation: 0
      m_Anchor: 9
    m_Material: {fileID: 0}
    m_SubmeshIndex: 0
    m_ManualUV: 0
    elementGroup: -1
    m_TextureGroup: -1
  - m_Indexes: 08000000090000000a000000090000000b0000000a000000
    m_SmoothingGroup: 0
    m_Uv:
      m_UseWorldSpace: 0
      m_FlipU: 0
      m_FlipV: 0
      m_SwapUV: 0
      m_Fill: 1
      m_Scale: {x: 1, y: 1}
      m_Offset: {x: 0, y: 0}
      m_Rotation: 0
      m_Anchor: 9
    m_Material: {fileID: 0}
    m_SubmeshIndex: 0
    m_ManualUV: 0
    elementGroup: -1
    m_TextureGroup: -1
  - m_Indexes: 0c0000000d0000000e0000000d0000000f0000000e000000
    m_SmoothingGroup: 0
    m_Uv:
      m_UseWorldSpace: 0
      m_FlipU: 0
      m_FlipV: 0
      m_SwapUV: 0
      m_Fill: 1
      m_Scale: {x: 1, y: 1}
      m_Offset: {x: 0, y: 0}
      m_Rotation: 0
      m_Anchor: 9
    m_Material: {fileID: 0}
    m_SubmeshIndex: 0
    m_ManualUV: 0
    elementGroup: -1
    m_TextureGroup: -1
  - m_Indexes: 100000001100000012000000110000001300000012000000
    m_SmoothingGroup: 0
    m_Uv:
      m_UseWorldSpace: 0
      m_FlipU: 0
      m_FlipV: 0
      m_SwapUV: 0
      m_Fill: 1
      m_Scale: {x: 1, y: 1}
      m_Offset: {x: 0, y: 0}
      m_Rotation: 0
      m_Anchor: 9
    m_Material: {fileID: 0}
    m_SubmeshIndex: 0
    m_ManualUV: 0
    elementGroup: -1
    m_TextureGroup: -1
  - m_Indexes: 140000001500000016000000150000001700000016000000
    m_SmoothingGroup: 0
    m_Uv:
      m_UseWorldSpace: 0
      m_FlipU: 0
      m_FlipV: 0
      m_SwapUV: 0
      m_Fill: 1
      m_Scale: {x: 1, y: 1}
      m_Offset: {x: 0, y: 0}
      m_Rotation: 0
      m_Anchor: 9
    m_Material: {fileID: 0}
    m_SubmeshIndex: 0
    m_ManualUV: 0
    elementGroup: -1
    m_TextureGroup: -1
  - m_Indexes: 18000000190000001a000000190000001b0000001a000000
    m_SmoothingGroup: 0
    m_Uv:
      m_UseWorldSpace: 0
      m_FlipU: 0
      m_FlipV: 0
      m_SwapUV: 0
      m_Fill: 1
      m_Scale: {x: 1, y: 1}
      m_Offset: {x: 0, y: 0}
      m_Rotation: 0
      m_Anchor: 9
    m_Material: {fileID: 0}
    m_SubmeshIndex: 0
    m_ManualUV: 0
    elementGroup: -1
    m_TextureGroup: -1
  - m_Indexes: 1c0000001d0000001e0000001d0000001f0000001e000000
    m_SmoothingGroup: 0
    m_Uv:
      m_UseWorldSpace: 0
      m_FlipU: 0
      m_FlipV: 0
      m_SwapUV: 0
      m_Fill: 1
      m_Scale: {x: 1, y: 1}
      m_Offset: {x: 0, y: 0}
      m_Rotation: 0
      m_Anchor: 9
    m_Material: {fileID: 0}
    m_SubmeshIndex: 0
    m_ManualUV: 0
    elementGroup: -1
    m_TextureGroup: -1
  - m_Indexes: 200000002100000022000000210000002300000022000000
    m_SmoothingGroup: 0
    m_Uv:
      m_UseWorldSpace: 0
      m_FlipU: 0
      m_FlipV: 0
      m_SwapUV: 0
      m_Fill: 1
      m_Scale: {x: 1, y: 1}
      m_Offset: {x: 0, y: 0}
      m_Rotation: 0
      m_Anchor: 9
    m_Material: {fileID: 0}
    m_SubmeshIndex: 0
    m_ManualUV: 0
    elementGroup: -1
    m_TextureGroup: -1
  - m_Indexes: 240000002500000026000000250000002700000026000000
    m_SmoothingGroup: 0
    m_Uv:
      m_UseWorldSpace: 0
      m_FlipU: 0
      m_FlipV: 0
      m_SwapUV: 0
      m_Fill: 1
      m_Scale: {x: 1, y: 1}
      m_Offset: {x: 0, y: 0}
      m_Rotation: 0
      m_Anchor: 9
    m_Material: {fileID: 0}
    m_SubmeshIndex: 0
    m_ManualUV: 0
    elementGroup: -1
    m_TextureGroup: -1
  - m_Indexes: 28000000290000002a000000290000002b0000002a000000
    m_SmoothingGroup: 0
    m_Uv:
      m_UseWorldSpace: 0
      m_FlipU: 0
      m_FlipV: 0
      m_SwapUV: 0
      m_Fill: 1
      m_Scale: {x: 1, y: 1}
      m_Offset: {x: 0, y: 0}
      m_Rotation: 0
      m_Anchor: 9
    m_Material: {fileID: 0}
    m_SubmeshIndex: 0
    m_ManualUV: 0
    elementGroup: -1
    m_TextureGroup: -1
  - m_Indexes: 2c0000002d0000002e0000002d0000002f0000002e000000
    m_SmoothingGroup: 0
    m_Uv:
      m_UseWorldSpace: 0
      m_FlipU: 0
      m_FlipV: 0
      m_SwapUV: 0
      m_Fill: 1
      m_Scale: {x: 1, y: 1}
      m_Offset: {x: 0, y: 0}
      m_Rotation: 0
      m_Anchor: 9
    m_Material: {fileID: 0}
    m_SubmeshIndex: 0
    m_ManualUV: 0
    elementGroup: -1
    m_TextureGroup: -1
  - m_Indexes: 300000003100000032000000310000003300000032000000
    m_SmoothingGroup: 0
    m_Uv:
      m_UseWorldSpace: 0
      m_FlipU: 0
      m_FlipV: 0
      m_SwapUV: 0
      m_Fill: 1
      m_Scale: {x: 1, y: 1}
      m_Offset: {x: 0, y: 0}
      m_Rotation: 0
      m_Anchor: 9
    m_Material: {fileID: 0}
    m_SubmeshIndex: 0
    m_ManualUV: 0
    elementGroup: -1
    m_TextureGroup: -1
  - m_Indexes: 340000003500000036000000350000003700000036000000
    m_SmoothingGroup: 0
    m_Uv:
      m_UseWorldSpace: 0
      m_FlipU: 0
      m_FlipV: 0
      m_SwapUV: 0
      m_Fill: 1
      m_Scale: {x: 1, y: 1}
      m_Offset: {x: 0, y: 0}
      m_Rotation: 0
      m_Anchor: 9
    m_Material: {fileID: 0}
    m_SubmeshIndex: 0
    m_ManualUV: 0
    elementGroup: -1
    m_TextureGroup: -1
  - m_Indexes: 38000000390000003a000000390000003b0000003a000000
    m_SmoothingGroup: 0
    m_Uv:
      m_UseWorldSpace: 0
      m_FlipU: 0
      m_FlipV: 0
      m_SwapUV: 0
      m_Fill: 1
      m_Scale: {x: 1, y: 1}
      m_Offset: {x: 0, y: 0}
      m_Rotation: 0
      m_Anchor: 9
    m_Material: {fileID: 0}
    m_SubmeshIndex: 0
    m_ManualUV: 0
    elementGroup: -1
    m_TextureGroup: -1
  - m_Indexes: 3c0000003d0000003e0000003d0000003f0000003e000000
    m_SmoothingGroup: 0
    m_Uv:
      m_UseWorldSpace: 0
      m_FlipU: 0
      m_FlipV: 0
      m_SwapUV: 0
      m_Fill: 1
      m_Scale: {x: 1, y: 1}
      m_Offset: {x: 0, y: 0}
      m_Rotation: 0
      m_Anchor: 9
    m_Material: {fileID: 0}
    m_SubmeshIndex: 0
    m_ManualUV: 0
    elementGroup: -1
    m_TextureGroup: -1
  - m_Indexes: 400000004100000042000000410000004300000042000000
    m_SmoothingGroup: 0
    m_Uv:
      m_UseWorldSpace: 0
      m_FlipU: 0
      m_FlipV: 0
      m_SwapUV: 0
      m_Fill: 1
      m_Scale: {x: 1, y: 1}
      m_Offset: {x: 0, y: 0}
      m_Rotation: 0
      m_Anchor: 9
    m_Material: {fileID: 0}
    m_SubmeshIndex: 0
    m_ManualUV: 0
    elementGroup: -1
    m_TextureGroup: -1
  - m_Indexes: 440000004500000046000000450000004700000046000000
    m_SmoothingGroup: 0
    m_Uv:
      m_UseWorldSpace: 0
      m_FlipU: 0
      m_FlipV: 0
      m_SwapUV: 0
      m_Fill: 1
      m_Scale: {x: 1, y: 1}
      m_Offset: {x: 0, y: 0}
      m_Rotation: 0
      m_Anchor: 9
    m_Material: {fileID: 0}
    m_SubmeshIndex: 0
    m_ManualUV: 0
    elementGroup: -1
    m_TextureGroup: -1
  - m_Indexes: 48000000490000004a000000490000004b0000004a000000
    m_SmoothingGroup: 0
    m_Uv:
      m_UseWorldSpace: 0
      m_FlipU: 0
      m_FlipV: 0
      m_SwapUV: 0
      m_Fill: 1
      m_Scale: {x: 1, y: 1}
      m_Offset: {x: 0, y: 0}
      m_Rotation: 0
      m_Anchor: 9
    m_Material: {fileID: 0}
    m_SubmeshIndex: 0
    m_ManualUV: 0
    elementGroup: -1
    m_TextureGroup: -1
  - m_Indexes: 4c0000004d0000004e0000004d0000004f0000004e000000
    m_SmoothingGroup: 0
    m_Uv:
      m_UseWorldSpace: 0
      m_FlipU: 0
      m_FlipV: 0
      m_SwapUV: 0
      m_Fill: 1
      m_Scale: {x: 1, y: 1}
      m_Offset: {x: 0, y: 0}
      m_Rotation: 0
      m_Anchor: 9
    m_Material: {fileID: 0}
    m_SubmeshIndex: 0
    m_ManualUV: 0
    elementGroup: -1
    m_TextureGroup: -1
  - m_Indexes: 500000005100000052000000510000005300000052000000
    m_SmoothingGroup: 0
    m_Uv:
      m_UseWorldSpace: 0
      m_FlipU: 0
      m_FlipV: 0
      m_SwapUV: 0
      m_Fill: 1
      m_Scale: {x: 1, y: 1}
      m_Offset: {x: 0, y: 0}
      m_Rotation: 0
      m_Anchor: 9
    m_Material: {fileID: 0}
    m_SubmeshIndex: 0
    m_ManualUV: 0
    elementGroup: -1
    m_TextureGroup: -1
  - m_Indexes: 540000005500000056000000550000005700000056000000
    m_SmoothingGroup: 0
    m_Uv:
      m_UseWorldSpace: 0
      m_FlipU: 0
      m_FlipV: 0
      m_SwapUV: 0
      m_Fill: 1
      m_Scale: {x: 1, y: 1}
      m_Offset: {x: 0, y: 0}
      m_Rotation: 0
      m_Anchor: 9
    m_Material: {fileID: 0}
    m_SubmeshIndex: 0
    m_ManualUV: 0
    elementGroup: -1
    m_TextureGroup: -1
  - m_Indexes: 58000000590000005a000000590000005b0000005a000000
    m_SmoothingGroup: 0
    m_Uv:
      m_UseWorldSpace: 0
      m_FlipU: 0
      m_FlipV: 0
      m_SwapUV: 0
      m_Fill: 1
      m_Scale: {x: 1, y: 1}
      m_Offset: {x: 0, y: 0}
      m_Rotation: 0
      m_Anchor: 9
    m_Material: {fileID: 0}
    m_SubmeshIndex: 0
    m_ManualUV: 0
    elementGroup: -1
    m_TextureGroup: -1
  - m_Indexes: 5c0000005d0000005e0000005d0000005f0000005e000000
    m_SmoothingGroup: 0
    m_Uv:
      m_UseWorldSpace: 0
      m_FlipU: 0
      m_FlipV: 0
      m_SwapUV: 0
      m_Fill: 1
      m_Scale: {x: 1, y: 1}
      m_Offset: {x: 0, y: 0}
      m_Rotation: 0
      m_Anchor: 9
    m_Material: {fileID: 0}
    m_SubmeshIndex: 0
    m_ManualUV: 0
    elementGroup: -1
    m_TextureGroup: -1
  - m_Indexes: 600000006100000062000000610000006300000062000000
    m_SmoothingGroup: 0
    m_Uv:
      m_UseWorldSpace: 0
      m_FlipU: 0
      m_FlipV: 0
      m_SwapUV: 0
      m_Fill: 1
      m_Scale: {x: 1, y: 1}
      m_Offset: {x: 0, y: 0}
      m_Rotation: 0
      m_Anchor: 9
    m_Material: {fileID: 0}
    m_SubmeshIndex: 0
    m_ManualUV: 0
    elementGroup: -1
    m_TextureGroup: -1
  - m_Indexes: 640000006500000066000000650000006700000066000000
    m_SmoothingGroup: 0
    m_Uv:
      m_UseWorldSpace: 0
      m_FlipU: 0
      m_FlipV: 0
      m_SwapUV: 0
      m_Fill: 1
      m_Scale: {x: 1, y: 1}
      m_Offset: {x: 0, y: 0}
      m_Rotation: 0
      m_Anchor: 9
    m_Material: {fileID: 0}
    m_SubmeshIndex: 0
    m_ManualUV: 0
    elementGroup: -1
    m_TextureGroup: -1
  - m_Indexes: 68000000690000006a000000690000006b0000006a000000
    m_SmoothingGroup: 0
    m_Uv:
      m_UseWorldSpace: 0
      m_FlipU: 0
      m_FlipV: 0
      m_SwapUV: 0
      m_Fill: 1
      m_Scale: {x: 1, y: 1}
      m_Offset: {x: 0, y: 0}
      m_Rotation: 0
      m_Anchor: 9
    m_Material: {fileID: 0}
    m_SubmeshIndex: 0
    m_ManualUV: 0
    elementGroup: -1
    m_TextureGroup: -1
  - m_Indexes: 6c0000006d0000006e0000006d0000006f0000006e000000
    m_SmoothingGroup: 0
    m_Uv:
      m_UseWorldSpace: 0
      m_FlipU: 0
      m_FlipV: 0
      m_SwapUV: 0
      m_Fill: 1
      m_Scale: {x: 1, y: 1}
      m_Offset: {x: 0, y: 0}
      m_Rotation: 0
      m_Anchor: 9
    m_Material: {fileID: 0}
    m_SubmeshIndex: 0
    m_ManualUV: 0
    elementGroup: -1
    m_TextureGroup: -1
  - m_Indexes: 700000007100000072000000710000007300000072000000
    m_SmoothingGroup: 0
    m_Uv:
      m_UseWorldSpace: 0
      m_FlipU: 0
      m_FlipV: 0
      m_SwapUV: 0
      m_Fill: 1
      m_Scale: {x: 1, y: 1}
      m_Offset: {x: 0, y: 0}
      m_Rotation: 0
      m_Anchor: 9
    m_Material: {fileID: 0}
    m_SubmeshIndex: 0
    m_ManualUV: 0
    elementGroup: -1
    m_TextureGroup: -1
  - m_Indexes: 740000007500000076000000750000007700000076000000
    m_SmoothingGroup: 0
    m_Uv:
      m_UseWorldSpace: 0
      m_FlipU: 0
      m_FlipV: 0
      m_SwapUV: 0
      m_Fill: 1
      m_Scale: {x: 1, y: 1}
      m_Offset: {x: 0, y: 0}
      m_Rotation: 0
      m_Anchor: 9
    m_Material: {fileID: 0}
    m_SubmeshIndex: 0
    m_ManualUV: 0
    elementGroup: -1
    m_TextureGroup: -1
  - m_Indexes: 78000000790000007a000000790000007b0000007a000000
    m_SmoothingGroup: 0
    m_Uv:
      m_UseWorldSpace: 0
      m_FlipU: 0
      m_FlipV: 0
      m_SwapUV: 0
      m_Fill: 1
      m_Scale: {x: 1, y: 1}
      m_Offset: {x: 0, y: 0}
      m_Rotation: 0
      m_Anchor: 9
    m_Material: {fileID: 0}
    m_SubmeshIndex: 0
    m_ManualUV: 0
    elementGroup: -1
    m_TextureGroup: -1
  - m_Indexes: 7c0000007d0000007e0000007d0000007f0000007e000000
    m_SmoothingGroup: 0
    m_Uv:
      m_UseWorldSpace: 0
      m_FlipU: 0
      m_FlipV: 0
      m_SwapUV: 0
      m_Fill: 1
      m_Scale: {x: 1, y: 1}
      m_Offset: {x: 0, y: 0}
      m_Rotation: 0
      m_Anchor: 9
    m_Material: {fileID: 0}
    m_SubmeshIndex: 0
    m_ManualUV: 0
    elementGroup: -1
    m_TextureGroup: -1
  - m_Indexes: 800000008100000082000000810000008300000082000000
    m_SmoothingGroup: 0
    m_Uv:
      m_UseWorldSpace: 0
      m_FlipU: 0
      m_FlipV: 0
      m_SwapUV: 0
      m_Fill: 1
      m_Scale: {x: 1, y: 1}
      m_Offset: {x: 0, y: 0}
      m_Rotation: 0
      m_Anchor: 9
    m_Material: {fileID: 0}
    m_SubmeshIndex: 0
    m_ManualUV: 0
    elementGroup: -1
    m_TextureGroup: -1
  - m_Indexes: 840000008500000086000000850000008700000086000000
    m_SmoothingGroup: 0
    m_Uv:
      m_UseWorldSpace: 0
      m_FlipU: 0
      m_FlipV: 0
      m_SwapUV: 0
      m_Fill: 1
      m_Scale: {x: 1, y: 1}
      m_Offset: {x: 0, y: 0}
      m_Rotation: 0
      m_Anchor: 9
    m_Material: {fileID: 0}
    m_SubmeshIndex: 0
    m_ManualUV: 0
    elementGroup: -1
    m_TextureGroup: -1
  - m_Indexes: 88000000890000008a000000890000008b0000008a000000
    m_SmoothingGroup: 0
    m_Uv:
      m_UseWorldSpace: 0
      m_FlipU: 0
      m_FlipV: 0
      m_SwapUV: 0
      m_Fill: 1
      m_Scale: {x: 1, y: 1}
      m_Offset: {x: 0, y: 0}
      m_Rotation: 0
      m_Anchor: 9
    m_Material: {fileID: 0}
    m_SubmeshIndex: 0
    m_ManualUV: 0
    elementGroup: -1
    m_TextureGroup: -1
  - m_Indexes: 8c0000008d0000008e0000008d0000008f0000008e000000
    m_SmoothingGroup: 0
    m_Uv:
      m_UseWorldSpace: 0
      m_FlipU: 0
      m_FlipV: 0
      m_SwapUV: 0
      m_Fill: 1
      m_Scale: {x: 1, y: 1}
      m_Offset: {x: 0, y: 0}
      m_Rotation: 0
      m_Anchor: 9
    m_Material: {fileID: 0}
    m_SubmeshIndex: 0
    m_ManualUV: 0
    elementGroup: -1
    m_TextureGroup: -1
  - m_Indexes: 900000009100000092000000910000009300000092000000
    m_SmoothingGroup: 0
    m_Uv:
      m_UseWorldSpace: 0
      m_FlipU: 0
      m_FlipV: 0
      m_SwapUV: 0
      m_Fill: 1
      m_Scale: {x: 1, y: 1}
      m_Offset: {x: 0, y: 0}
      m_Rotation: 0
      m_Anchor: 9
    m_Material: {fileID: 0}
    m_SubmeshIndex: 0
    m_ManualUV: 0
    elementGroup: -1
    m_TextureGroup: -1
  - m_Indexes: 940000009500000096000000950000009700000096000000
    m_SmoothingGroup: 0
    m_Uv:
      m_UseWorldSpace: 0
      m_FlipU: 0
      m_FlipV: 0
      m_SwapUV: 0
      m_Fill: 1
      m_Scale: {x: 1, y: 1}
      m_Offset: {x: 0, y: 0}
      m_Rotation: 0
      m_Anchor: 9
    m_Material: {fileID: 0}
    m_SubmeshIndex: 0
    m_ManualUV: 0
    elementGroup: -1
    m_TextureGroup: -1
  - m_Indexes: 98000000990000009a000000990000009b0000009a000000
    m_SmoothingGroup: 0
    m_Uv:
      m_UseWorldSpace: 0
      m_FlipU: 0
      m_FlipV: 0
      m_SwapUV: 0
      m_Fill: 1
      m_Scale: {x: 1, y: 1}
      m_Offset: {x: 0, y: 0}
      m_Rotation: 0
      m_Anchor: 9
    m_Material: {fileID: 0}
    m_SubmeshIndex: 0
    m_ManualUV: 0
    elementGroup: -1
    m_TextureGroup: -1
  - m_Indexes: 9c0000009d0000009e0000009d0000009f0000009e000000
    m_SmoothingGroup: 0
    m_Uv:
      m_UseWorldSpace: 0
      m_FlipU: 0
      m_FlipV: 0
      m_SwapUV: 0
      m_Fill: 1
      m_Scale: {x: 1, y: 1}
      m_Offset: {x: 0, y: 0}
      m_Rotation: 0
      m_Anchor: 9
    m_Material: {fileID: 0}
    m_SubmeshIndex: 0
    m_ManualUV: 0
    elementGroup: -1
    m_TextureGroup: -1
  - m_Indexes: a0000000a1000000a2000000a1000000a3000000a2000000
    m_SmoothingGroup: 0
    m_Uv:
      m_UseWorldSpace: 0
      m_FlipU: 0
      m_FlipV: 0
      m_SwapUV: 0
      m_Fill: 1
      m_Scale: {x: 1, y: 1}
      m_Offset: {x: 0, y: 0}
      m_Rotation: 0
      m_Anchor: 9
    m_Material: {fileID: 0}
    m_SubmeshIndex: 0
    m_ManualUV: 0
    elementGroup: -1
    m_TextureGroup: -1
  - m_Indexes: a4000000a5000000a6000000a5000000a7000000a6000000
    m_SmoothingGroup: 0
    m_Uv:
      m_UseWorldSpace: 0
      m_FlipU: 0
      m_FlipV: 0
      m_SwapUV: 0
      m_Fill: 1
      m_Scale: {x: 1, y: 1}
      m_Offset: {x: 0, y: 0}
      m_Rotation: 0
      m_Anchor: 9
    m_Material: {fileID: 0}
    m_SubmeshIndex: 0
    m_ManualUV: 0
    elementGroup: -1
    m_TextureGroup: -1
  - m_Indexes: a8000000a9000000aa000000a9000000ab000000aa000000
    m_SmoothingGroup: 0
    m_Uv:
      m_UseWorldSpace: 0
      m_FlipU: 0
      m_FlipV: 0
      m_SwapUV: 0
      m_Fill: 1
      m_Scale: {x: 1, y: 1}
      m_Offset: {x: 0, y: 0}
      m_Rotation: 0
      m_Anchor: 9
    m_Material: {fileID: 0}
    m_SubmeshIndex: 0
    m_ManualUV: 0
    elementGroup: -1
    m_TextureGroup: -1
  - m_Indexes: ac000000ad000000ae000000ad000000af000000ae000000
    m_SmoothingGroup: 0
    m_Uv:
      m_UseWorldSpace: 0
      m_FlipU: 0
      m_FlipV: 0
      m_SwapUV: 0
      m_Fill: 1
      m_Scale: {x: 1, y: 1}
      m_Offset: {x: 0, y: 0}
      m_Rotation: 0
      m_Anchor: 9
    m_Material: {fileID: 0}
    m_SubmeshIndex: 0
    m_ManualUV: 0
    elementGroup: -1
    m_TextureGroup: -1
  - m_Indexes: b0000000b1000000b2000000b1000000b3000000b2000000
    m_SmoothingGroup: 0
    m_Uv:
      m_UseWorldSpace: 0
      m_FlipU: 0
      m_FlipV: 0
      m_SwapUV: 0
      m_Fill: 1
      m_Scale: {x: 1, y: 1}
      m_Offset: {x: 0, y: 0}
      m_Rotation: 0
      m_Anchor: 9
    m_Material: {fileID: 0}
    m_SubmeshIndex: 0
    m_ManualUV: 0
    elementGroup: -1
    m_TextureGroup: -1
  - m_Indexes: b4000000b5000000b6000000b5000000b7000000b6000000
    m_SmoothingGroup: 0
    m_Uv:
      m_UseWorldSpace: 0
      m_FlipU: 0
      m_FlipV: 0
      m_SwapUV: 0
      m_Fill: 1
      m_Scale: {x: 1, y: 1}
      m_Offset: {x: 0, y: 0}
      m_Rotation: 0
      m_Anchor: 9
    m_Material: {fileID: 0}
    m_SubmeshIndex: 0
    m_ManualUV: 0
    elementGroup: -1
    m_TextureGroup: -1
  - m_Indexes: b8000000b9000000ba000000b9000000bb000000ba000000
    m_SmoothingGroup: 0
    m_Uv:
      m_UseWorldSpace: 0
      m_FlipU: 0
      m_FlipV: 0
      m_SwapUV: 0
      m_Fill: 1
      m_Scale: {x: 1, y: 1}
      m_Offset: {x: 0, y: 0}
      m_Rotation: 0
      m_Anchor: 9
    m_Material: {fileID: 0}
    m_SubmeshIndex: 0
    m_ManualUV: 0
    elementGroup: -1
    m_TextureGroup: -1
  - m_Indexes: bc000000bd000000be000000bd000000bf000000be000000
    m_SmoothingGroup: 0
    m_Uv:
      m_UseWorldSpace: 0
      m_FlipU: 0
      m_FlipV: 0
      m_SwapUV: 0
      m_Fill: 1
      m_Scale: {x: 1, y: 1}
      m_Offset: {x: 0, y: 0}
      m_Rotation: 0
      m_Anchor: 9
    m_Material: {fileID: 0}
    m_SubmeshIndex: 0
    m_ManualUV: 0
    elementGroup: -1
    m_TextureGroup: -1
  - m_Indexes: c0000000c1000000c2000000c1000000c3000000c2000000
    m_SmoothingGroup: 0
    m_Uv:
      m_UseWorldSpace: 0
      m_FlipU: 0
      m_FlipV: 0
      m_SwapUV: 0
      m_Fill: 1
      m_Scale: {x: 1, y: 1}
      m_Offset: {x: 0, y: 0}
      m_Rotation: 0
      m_Anchor: 9
    m_Material: {fileID: 0}
    m_SubmeshIndex: 0
    m_ManualUV: 0
    elementGroup: -1
    m_TextureGroup: -1
  - m_Indexes: c4000000c5000000c6000000c5000000c7000000c6000000
    m_SmoothingGroup: 0
    m_Uv:
      m_UseWorldSpace: 0
      m_FlipU: 0
      m_FlipV: 0
      m_SwapUV: 0
      m_Fill: 1
      m_Scale: {x: 1, y: 1}
      m_Offset: {x: 0, y: 0}
      m_Rotation: 0
      m_Anchor: 9
    m_Material: {fileID: 0}
    m_SubmeshIndex: 0
    m_ManualUV: 0
    elementGroup: -1
    m_TextureGroup: -1
  - m_Indexes: c8000000c9000000ca000000c9000000cb000000ca000000
    m_SmoothingGroup: 0
    m_Uv:
      m_UseWorldSpace: 0
      m_FlipU: 0
      m_FlipV: 0
      m_SwapUV: 0
      m_Fill: 1
      m_Scale: {x: 1, y: 1}
      m_Offset: {x: 0, y: 0}
      m_Rotation: 0
      m_Anchor: 9
    m_Material: {fileID: 0}
    m_SubmeshIndex: 0
    m_ManualUV: 0
    elementGroup: -1
    m_TextureGroup: -1
  - m_Indexes: cc000000cd000000ce000000cd000000cf000000ce000000
    m_SmoothingGroup: 0
    m_Uv:
      m_UseWorldSpace: 0
      m_FlipU: 0
      m_FlipV: 0
      m_SwapUV: 0
      m_Fill: 1
      m_Scale: {x: 1, y: 1}
      m_Offset: {x: 0, y: 0}
      m_Rotation: 0
      m_Anchor: 9
    m_Material: {fileID: 0}
    m_SubmeshIndex: 0
    m_ManualUV: 0
    elementGroup: -1
    m_TextureGroup: -1
  - m_Indexes: d0000000d1000000d2000000d1000000d3000000d2000000
    m_SmoothingGroup: 0
    m_Uv:
      m_UseWorldSpace: 0
      m_FlipU: 0
      m_FlipV: 0
      m_SwapUV: 0
      m_Fill: 1
      m_Scale: {x: 1, y: 1}
      m_Offset: {x: 0, y: 0}
      m_Rotation: 0
      m_Anchor: 9
    m_Material: {fileID: 0}
    m_SubmeshIndex: 0
    m_ManualUV: 0
    elementGroup: -1
    m_TextureGroup: -1
  - m_Indexes: d4000000d5000000d6000000d5000000d7000000d6000000
    m_SmoothingGroup: 0
    m_Uv:
      m_UseWorldSpace: 0
      m_FlipU: 0
      m_FlipV: 0
      m_SwapUV: 0
      m_Fill: 1
      m_Scale: {x: 1, y: 1}
      m_Offset: {x: 0, y: 0}
      m_Rotation: 0
      m_Anchor: 9
    m_Material: {fileID: 0}
    m_SubmeshIndex: 0
    m_ManualUV: 0
    elementGroup: -1
    m_TextureGroup: -1
  - m_Indexes: d8000000d9000000da000000d9000000db000000da000000
    m_SmoothingGroup: 0
    m_Uv:
      m_UseWorldSpace: 0
      m_FlipU: 0
      m_FlipV: 0
      m_SwapUV: 0
      m_Fill: 1
      m_Scale: {x: 1, y: 1}
      m_Offset: {x: 0, y: 0}
      m_Rotation: 0
      m_Anchor: 9
    m_Material: {fileID: 0}
    m_SubmeshIndex: 0
    m_ManualUV: 0
    elementGroup: -1
    m_TextureGroup: -1
  - m_Indexes: dc000000dd000000de000000dd000000df000000de000000
    m_SmoothingGroup: 0
    m_Uv:
      m_UseWorldSpace: 0
      m_FlipU: 0
      m_FlipV: 0
      m_SwapUV: 0
      m_Fill: 1
      m_Scale: {x: 1, y: 1}
      m_Offset: {x: 0, y: 0}
      m_Rotation: 0
      m_Anchor: 9
    m_Material: {fileID: 0}
    m_SubmeshIndex: 0
    m_ManualUV: 0
    elementGroup: -1
    m_TextureGroup: -1
  - m_Indexes: e0000000e1000000e2000000e1000000e3000000e2000000
    m_SmoothingGroup: 0
    m_Uv:
      m_UseWorldSpace: 0
      m_FlipU: 0
      m_FlipV: 0
      m_SwapUV: 0
      m_Fill: 1
      m_Scale: {x: 1, y: 1}
      m_Offset: {x: 0, y: 0}
      m_Rotation: 0
      m_Anchor: 9
    m_Material: {fileID: 0}
    m_SubmeshIndex: 0
    m_ManualUV: 0
    elementGroup: -1
    m_TextureGroup: -1
  - m_Indexes: e4000000e5000000e6000000e5000000e7000000e6000000
    m_SmoothingGroup: 0
    m_Uv:
      m_UseWorldSpace: 0
      m_FlipU: 0
      m_FlipV: 0
      m_SwapUV: 0
      m_Fill: 1
      m_Scale: {x: 1, y: 1}
      m_Offset: {x: 0, y: 0}
      m_Rotation: 0
      m_Anchor: 9
    m_Material: {fileID: 0}
    m_SubmeshIndex: 0
    m_ManualUV: 0
    elementGroup: -1
    m_TextureGroup: -1
  - m_Indexes: e8000000e9000000ea000000e9000000eb000000ea000000
    m_SmoothingGroup: 0
    m_Uv:
      m_UseWorldSpace: 0
      m_FlipU: 0
      m_FlipV: 0
      m_SwapUV: 0
      m_Fill: 1
      m_Scale: {x: 1, y: 1}
      m_Offset: {x: 0, y: 0}
      m_Rotation: 0
      m_Anchor: 9
    m_Material: {fileID: 0}
    m_SubmeshIndex: 0
    m_ManualUV: 0
    elementGroup: -1
    m_TextureGroup: -1
  - m_Indexes: ec000000ed000000ee000000ed000000ef000000ee000000
    m_SmoothingGroup: 0
    m_Uv:
      m_UseWorldSpace: 0
      m_FlipU: 0
      m_FlipV: 0
      m_SwapUV: 0
      m_Fill: 1
      m_Scale: {x: 1, y: 1}
      m_Offset: {x: 0, y: 0}
      m_Rotation: 0
      m_Anchor: 9
    m_Material: {fileID: 0}
    m_SubmeshIndex: 0
    m_ManualUV: 0
    elementGroup: -1
    m_TextureGroup: -1
  m_SharedVertices:
  - m_Vertices: 0000000009000000a1000000a8000000
  - m_Vertices: 0100000048000000a0000000e9000000
  - m_Vertices: 020000000b0000005000000059000000
  - m_Vertices: 030000004a0000005100000098000000
  - m_Vertices: 040000004d000000a2000000eb000000
  - m_Vertices: 050000000c000000a3000000aa000000
  - m_Vertices: 060000004f000000540000009d000000
  - m_Vertices: 070000000e000000550000005c000000
  - m_Vertices: 0800000011000000a9000000b0000000
  - m_Vertices: 0a000000130000005800000061000000
  - m_Vertices: 0d00000014000000ab000000b2000000
  - m_Vertices: 0f000000160000005d00000064000000
  - m_Vertices: 1000000019000000b1000000b8000000
  - m_Vertices: 120000001b0000006000000069000000
  - m_Vertices: 150000001c000000b3000000ba000000
  - m_Vertices: 170000001e000000650000006c000000
  - m_Vertices: 1800000021000000b9000000c0000000
  - m_Vertices: 1a000000230000006800000071000000
  - m_Vertices: 1d00000024000000bb000000c2000000
  - m_Vertices: 1f000000260000006d00000074000000
  - m_Vertices: 2000000029000000c1000000c8000000
  - m_Vertices: 220000002b0000007000000079000000
  - m_Vertices: 250000002c000000c3000000ca000000
  - m_Vertices: 270000002e000000750000007c000000
  - m_Vertices: 2800000031000000c9000000d0000000
  - m_Vertices: 2a000000330000007800000081000000
  - m_Vertices: 2d00000034000000cb000000d2000000
  - m_Vertices: 2f000000360000007d00000084000000
  - m_Vertices: 3000000039000000d1000000d8000000
  - m_Vertices: 320000003b0000008000000089000000
  - m_Vertices: 350000003c000000d3000000da000000
  - m_Vertices: 370000003e000000850000008c000000
  - m_Vertices: 3800000041000000d9000000e0000000
  - m_Vertices: 3a000000430000008800000091000000
  - m_Vertices: 3d00000044000000db000000e2000000
  - m_Vertices: 3f000000460000008d00000094000000
  - m_Vertices: 4000000049000000e1000000e8000000
  - m_Vertices: 420000004b0000009000000099000000
  - m_Vertices: 450000004c000000e3000000ea000000
  - m_Vertices: 470000004e000000950000009c000000
  - m_Vertices: 520000005b000000a4000000ad000000
  - m_Vertices: 530000009a000000a5000000ec000000
  - m_Vertices: 560000009f000000a7000000ee000000
  - m_Vertices: 570000005e000000a6000000af000000
  - m_Vertices: 5a00000063000000ac000000b5000000
  - m_Vertices: 5f00000066000000ae000000b7000000
  - m_Vertices: 620000006b000000b4000000bd000000
  - m_Vertices: 670000006e000000b6000000bf000000
  - m_Vertices: 6a00000073000000bc000000c5000000
  - m_Vertices: 6f00000076000000be000000c7000000
  - m_Vertices: 720000007b000000c4000000cd000000
  - m_Vertices: 770000007e000000c6000000cf000000
  - m_Vertices: 7a00000083000000cc000000d5000000
  - m_Vertices: 7f00000086000000ce000000d7000000
  - m_Vertices: 820000008b000000d4000000dd000000
  - m_Vertices: 870000008e000000d6000000df000000
  - m_Vertices: 8a00000093000000dc000000e5000000
  - m_Vertices: 8f00000096000000de000000e7000000
  - m_Vertices: 920000009b000000e4000000ed000000
  - m_Vertices: 970000009e000000e6000000ef000000
  m_SharedTextures: []
  m_Positions:
  - {x: -0.057294905, y: 0, z: 0.17633557}
  - {x: 0, y: 0, z: 0}
  - {x: -0.057294905, y: 0.4, z: 0.17633557}
  - {x: 0, y: 0.4, z: 0}
  - {x: -0.099999994, y: 0, z: 0}
  - {x: -0.1381966, y: 0, z: 0.117557056}
  - {x: -0.099999994, y: 0.4, z: 0}
  - {x: -0.1381966, y: 0.4, z: 0.117557056}
  - {x: -0.20729491, y: 0, z: 0.28531697}
  - {x: -0.057294905, y: 0, z: 0.17633557}
  - {x: -0.20729491, y: 0.4, z: 0.28531697}
  - {x: -0.057294905, y: 0.4, z: 0.17633557}
  - {x: -0.1381966, y: 0, z: 0.117557056}
  - {x: -0.23819661, y: 0, z: 0.19021133}
  - {x: -0.1381966, y: 0.4, z: 0.117557056}
  - {x: -0.23819661, y: 0.4, z: 0.19021133}
  - {x: -0.39270508, y: 0, z: 0.28531697}
  - {x: -0.20729491, y: 0, z: 0.28531697}
  - {x: -0.39270508, y: 0.4, z: 0.28531697}
  - {x: -0.20729491, y: 0.4, z: 0.28531697}
  - {x: -0.23819661, y: 0, z: 0.19021133}
  - {x: -0.3618034, y: 0, z: 0.19021133}
  - {x: -0.23819661, y: 0.4, z: 0.19021133}
  - {x: -0.3618034, y: 0.4, z: 0.19021133}
  - {x: -0.5427051, y: 0, z: 0.17633556}
  - {x: -0.39270508, y: 0, z: 0.28531697}
  - {x: -0.5427051, y: 0.4, z: 0.17633556}
  - {x: -0.39270508, y: 0.4, z: 0.28531697}
  - {x: -0.3618034, y: 0, z: 0.19021133}
  - {x: -0.46180344, y: 0, z: 0.11755705}
  - {x: -0.3618034, y: 0.4, z: 0.19021133}
  - {x: -0.46180344, y: 0.4, z: 0.11755705}
  - {x: -0.6, y: 0, z: -0.000000026226834}
  - {x: -0.5427051, y: 0, z: 0.17633556}
  - {x: -0.6, y: 0.4, z: -0.000000026226834}
  - {x: -0.5427051, y: 0.4, z: 0.17633556}
  - {x: -0.46180344, y: 0, z: 0.11755705}
  - {x: -0.5, y: 0, z: -0.000000017484556}
  - {x: -0.46180344, y: 0.4, z: 0.11755705}
  - {x: -0.5, y: 0.4, z: -0.000000017484556}
  - {x: -0.5427051, y: 0, z: -0.17633554}
  - {x: -0.6, y: 0, z: -0.000000026226834}
  - {x: -0.5427051, y: 0.4, z: -0.17633554}
  - {x: -0.6, y: 0.4, z: -0.000000026226834}
  - {x: -0.5, y: 0, z: -0.000000017484556}
  - {x: -0.46180344, y: 0, z: -0.117557034}
  - {x: -0.5, y: 0.4, z: -0.000000017484556}
  - {x: -0.46180344, y: 0.4, z: -0.117557034}
  - {x: -0.39270514, y: 0, z: -0.28531694}
  - {x: -0.5427051, y: 0, z: -0.17633554}
  - {x: -0.39270514, y: 0.4, z: -0.28531694}
  - {x: -0.5427051, y: 0.4, z: -0.17633554}
  - {x: -0.46180344, y: 0, z: -0.117557034}
  - {x: -0.36180344, y: 0, z: -0.19021131}
  - {x: -0.46180344, y: 0.4, z: -0.117557034}
  - {x: -0.36180344, y: 0.4, z: -0.19021131}
  - {x: -0.20729488, y: 0, z: -0.28531694}
  - {x: -0.39270514, y: 0, z: -0.28531694}
  - {x: -0.20729488, y: 0.4, z: -0.28531694}
  - {x: -0.39270514, y: 0.4, z: -0.28531694}
  - {x: -0.36180344, y: 0, z: -0.19021131}
  - {x: -0.23819658, y: 0, z: -0.19021131}
  - {x: -0.36180344, y: 0.4, z: -0.19021131}
  - {x: -0.23819658, y: 0.4, z: -0.19021131}
  - {x: -0.05729492, y: 0, z: -0.1763356}
  - {x: -0.20729488, y: 0, z: -0.28531694}
  - {x: -0.05729492, y: 0.4, z: -0.1763356}
  - {x: -0.20729488, y: 0.4, z: -0.28531694}
  - {x: -0.23819658, y: 0, z: -0.19021131}
  - {x: -0.1381966, y: 0, z: -0.11755707}
  - {x: -0.23819658, y: 0.4, z: -0.19021131}
  - {x: -0.1381966, y: 0.4, z: -0.11755707}
  - {x: 0, y: 0, z: 0}
  - {x: -0.05729492, y: 0, z: -0.1763356}
  - {x: 0, y: 0.4, z: 0}
  - {x: -0.05729492, y: 0.4, z: -0.1763356}
  - {x: -0.1381966, y: 0, z: -0.11755707}
  - {x: -0.099999994, y: 0, z: 0}
  - {x: -0.1381966, y: 0.4, z: -0.11755707}
  - {x: -0.099999994, y: 0.4, z: 0}
  - {x: -0.057294905, y: 0.4, z: 0.17633557}
  - {x: 0, y: 0.4, z: 0}
  - {x: -0.057294905, y: 0.8, z: 0.17633557}
  - {x: 0, y: 0.8, z: 0}
  - {x: -0.099999994, y: 0.4, z: 0}
  - {x: -0.1381966, y: 0.4, z: 0.117557056}
  - {x: -0.099999994, y: 0.8, z: 0}
  - {x: -0.1381966, y: 0.8, z: 0.117557056}
  - {x: -0.20729491, y: 0.4, z: 0.28531697}
  - {x: -0.057294905, y: 0.4, z: 0.17633557}
  - {x: -0.20729491, y: 0.8, z: 0.28531697}
  - {x: -0.057294905, y: 0.8, z: 0.17633557}
  - {x: -0.1381966, y: 0.4, z: 0.117557056}
  - {x: -0.23819661, y: 0.4, z: 0.19021133}
  - {x: -0.1381966, y: 0.8, z: 0.117557056}
  - {x: -0.23819661, y: 0.8, z: 0.19021133}
  - {x: -0.39270508, y: 0.4, z: 0.28531697}
  - {x: -0.20729491, y: 0.4, z: 0.28531697}
  - {x: -0.39270508, y: 0.8, z: 0.28531697}
  - {x: -0.20729491, y: 0.8, z: 0.28531697}
  - {x: -0.23819661, y: 0.4, z: 0.19021133}
  - {x: -0.3618034, y: 0.4, z: 0.19021133}
  - {x: -0.23819661, y: 0.8, z: 0.19021133}
  - {x: -0.3618034, y: 0.8, z: 0.19021133}
  - {x: -0.5427051, y: 0.4, z: 0.17633556}
  - {x: -0.39270508, y: 0.4, z: 0.28531697}
  - {x: -0.5427051, y: 0.8, z: 0.17633556}
  - {x: -0.39270508, y: 0.8, z: 0.28531697}
  - {x: -0.3618034, y: 0.4, z: 0.19021133}
  - {x: -0.46180344, y: 0.4, z: 0.11755705}
  - {x: -0.3618034, y: 0.8, z: 0.19021133}
  - {x: -0.46180344, y: 0.8, z: 0.11755705}
  - {x: -0.6, y: 0.4, z: -0.000000026226834}
  - {x: -0.5427051, y: 0.4, z: 0.17633556}
  - {x: -0.6, y: 0.8, z: -0.000000026226834}
  - {x: -0.5427051, y: 0.8, z: 0.17633556}
  - {x: -0.46180344, y: 0.4, z: 0.11755705}
  - {x: -0.5, y: 0.4, z: -0.000000017484556}
  - {x: -0.46180344, y: 0.8, z: 0.11755705}
  - {x: -0.5, y: 0.8, z: -0.000000017484556}
  - {x: -0.5427051, y: 0.4, z: -0.17633554}
  - {x: -0.6, y: 0.4, z: -0.000000026226834}
  - {x: -0.5427051, y: 0.8, z: -0.17633554}
  - {x: -0.6, y: 0.8, z: -0.000000026226834}
  - {x: -0.5, y: 0.4, z: -0.000000017484556}
  - {x: -0.46180344, y: 0.4, z: -0.117557034}
  - {x: -0.5, y: 0.8, z: -0.000000017484556}
  - {x: -0.46180344, y: 0.8, z: -0.117557034}
  - {x: -0.39270514, y: 0.4, z: -0.28531694}
  - {x: -0.5427051, y: 0.4, z: -0.17633554}
  - {x: -0.39270514, y: 0.8, z: -0.28531694}
  - {x: -0.5427051, y: 0.8, z: -0.17633554}
  - {x: -0.46180344, y: 0.4, z: -0.117557034}
  - {x: -0.36180344, y: 0.4, z: -0.19021131}
  - {x: -0.46180344, y: 0.8, z: -0.117557034}
  - {x: -0.36180344, y: 0.8, z: -0.19021131}
  - {x: -0.20729488, y: 0.4, z: -0.28531694}
  - {x: -0.39270514, y: 0.4, z: -0.28531694}
  - {x: -0.20729488, y: 0.8, z: -0.28531694}
  - {x: -0.39270514, y: 0.8, z: -0.28531694}
  - {x: -0.36180344, y: 0.4, z: -0.19021131}
  - {x: -0.23819658, y: 0.4, z: -0.19021131}
  - {x: -0.36180344, y: 0.8, z: -0.19021131}
  - {x: -0.23819658, y: 0.8, z: -0.19021131}
  - {x: -0.05729492, y: 0.4, z: -0.1763356}
  - {x: -0.20729488, y: 0.4, z: -0.28531694}
  - {x: -0.05729492, y: 0.8, z: -0.1763356}
  - {x: -0.20729488, y: 0.8, z: -0.28531694}
  - {x: -0.23819658, y: 0.4, z: -0.19021131}
  - {x: -0.1381966, y: 0.4, z: -0.11755707}
  - {x: -0.23819658, y: 0.8, z: -0.19021131}
  - {x: -0.1381966, y: 0.8, z: -0.11755707}
  - {x: 0, y: 0.4, z: 0}
  - {x: -0.05729492, y: 0.4, z: -0.1763356}
  - {x: 0, y: 0.8, z: 0}
  - {x: -0.05729492, y: 0.8, z: -0.1763356}
  - {x: -0.1381966, y: 0.4, z: -0.11755707}
  - {x: -0.099999994, y: 0.4, z: 0}
  - {x: -0.1381966, y: 0.8, z: -0.11755707}
  - {x: -0.099999994, y: 0.8, z: 0}
  - {x: 0, y: 0, z: 0}
  - {x: -0.057294905, y: 0, z: 0.17633557}
  - {x: -0.099999994, y: 0, z: 0}
  - {x: -0.1381966, y: 0, z: 0.117557056}
  - {x: -0.057294905, y: 0.8, z: 0.17633557}
  - {x: 0, y: 0.8, z: 0}
  - {x: -0.1381966, y: 0.8, z: 0.117557056}
  - {x: -0.099999994, y: 0.8, z: 0}
  - {x: -0.057294905, y: 0, z: 0.17633557}
  - {x: -0.20729491, y: 0, z: 0.28531697}
  - {x: -0.1381966, y: 0, z: 0.117557056}
  - {x: -0.23819661, y: 0, z: 0.19021133}
  - {x: -0.20729491, y: 0.8, z: 0.28531697}
  - {x: -0.057294905, y: 0.8, z: 0.17633557}
  - {x: -0.23819661, y: 0.8, z: 0.19021133}
  - {x: -0.1381966, y: 0.8, z: 0.117557056}
  - {x: -0.20729491, y: 0, z: 0.28531697}
  - {x: -0.39270508, y: 0, z: 0.28531697}
  - {x: -0.23819661, y: 0, z: 0.19021133}
  - {x: -0.3618034, y: 0, z: 0.19021133}
  - {x: -0.39270508, y: 0.8, z: 0.28531697}
  - {x: -0.20729491, y: 0.8, z: 0.28531697}
  - {x: -0.3618034, y: 0.8, z: 0.19021133}
  - {x: -0.23819661, y: 0.8, z: 0.19021133}
  - {x: -0.39270508, y: 0, z: 0.28531697}
  - {x: -0.5427051, y: 0, z: 0.17633556}
  - {x: -0.3618034, y: 0, z: 0.19021133}
  - {x: -0.46180344, y: 0, z: 0.11755705}
  - {x: -0.5427051, y: 0.8, z: 0.17633556}
  - {x: -0.39270508, y: 0.8, z: 0.28531697}
  - {x: -0.46180344, y: 0.8, z: 0.11755705}
  - {x: -0.3618034, y: 0.8, z: 0.19021133}
  - {x: -0.5427051, y: 0, z: 0.17633556}
  - {x: -0.6, y: 0, z: -0.000000026226834}
  - {x: -0.46180344, y: 0, z: 0.11755705}
  - {x: -0.5, y: 0, z: -0.000000017484556}
  - {x: -0.6, y: 0.8, z: -0.000000026226834}
  - {x: -0.5427051, y: 0.8, z: 0.17633556}
  - {x: -0.5, y: 0.8, z: -0.000000017484556}
  - {x: -0.46180344, y: 0.8, z: 0.11755705}
  - {x: -0.6, y: 0, z: -0.000000026226834}
  - {x: -0.5427051, y: 0, z: -0.17633554}
  - {x: -0.5, y: 0, z: -0.000000017484556}
  - {x: -0.46180344, y: 0, z: -0.117557034}
  - {x: -0.5427051, y: 0.8, z: -0.17633554}
  - {x: -0.6, y: 0.8, z: -0.000000026226834}
  - {x: -0.46180344, y: 0.8, z: -0.117557034}
  - {x: -0.5, y: 0.8, z: -0.000000017484556}
  - {x: -0.5427051, y: 0, z: -0.17633554}
  - {x: -0.39270514, y: 0, z: -0.28531694}
  - {x: -0.46180344, y: 0, z: -0.117557034}
  - {x: -0.36180344, y: 0, z: -0.19021131}
  - {x: -0.39270514, y: 0.8, z: -0.28531694}
  - {x: -0.5427051, y: 0.8, z: -0.17633554}
  - {x: -0.36180344, y: 0.8, z: -0.19021131}
  - {x: -0.46180344, y: 0.8, z: -0.117557034}
  - {x: -0.39270514, y: 0, z: -0.28531694}
  - {x: -0.20729488, y: 0, z: -0.28531694}
  - {x: -0.36180344, y: 0, z: -0.19021131}
  - {x: -0.23819658, y: 0, z: -0.19021131}
  - {x: -0.20729488, y: 0.8, z: -0.28531694}
  - {x: -0.39270514, y: 0.8, z: -0.28531694}
  - {x: -0.23819658, y: 0.8, z: -0.19021131}
  - {x: -0.36180344, y: 0.8, z: -0.19021131}
  - {x: -0.20729488, y: 0, z: -0.28531694}
  - {x: -0.05729492, y: 0, z: -0.1763356}
  - {x: -0.23819658, y: 0, z: -0.19021131}
  - {x: -0.1381966, y: 0, z: -0.11755707}
  - {x: -0.05729492, y: 0.8, z: -0.1763356}
  - {x: -0.20729488, y: 0.8, z: -0.28531694}
  - {x: -0.1381966, y: 0.8, z: -0.11755707}
  - {x: -0.23819658, y: 0.8, z: -0.19021131}
  - {x: -0.05729492, y: 0, z: -0.1763356}
  - {x: 0, y: 0, z: 0}
  - {x: -0.1381966, y: 0, z: -0.11755707}
  - {x: -0.099999994, y: 0, z: 0}
  - {x: 0, y: 0.8, z: 0}
  - {x: -0.05729492, y: 0.8, z: -0.1763356}
  - {x: -0.099999994, y: 0.8, z: 0}
  - {x: -0.1381966, y: 0.8, z: -0.11755707}
  m_Textures0:
  - {x: 0.1854102, y: 0}
  - {x: 0, y: 0}
  - {x: 0.1854102, y: 0.4}
  - {x: 0, y: 0.4}
  - {x: -0.030901702, y: 0}
  - {x: -0.1545085, y: 0}
  - {x: -0.030901702, y: 0.4}
  - {x: -0.1545085, y: 0.4}
  - {x: 0.3354102, y: 0}
  - {x: 0.15, y: 0}
  - {x: 0.3354102, y: 0.4}
  - {x: 0.15, y: 0.4}
  - {x: -0.1809017, y: 0}
  - {x: -0.3045085, y: 0}
  - {x: -0.1809017, y: 0.4}
  - {x: -0.3045085, y: 0.4}
  - {x: 0.39270508, y: 0}
  - {x: 0.20729491, y: 0}
  - {x: 0.39270508, y: 0.4}
  - {x: 0.20729491, y: 0.4}
  - {x: -0.23819661, y: 0}
  - {x: -0.3618034, y: 0}
  - {x: -0.23819661, y: 0.4}
  - {x: -0.3618034, y: 0.4}
  - {x: 0.33541018, y: 0}
  - {x: 0.14999995, y: 0}
  - {x: 0.33541018, y: 0.4}
  - {x: 0.14999995, y: 0.4}
  - {x: -0.18090169, y: 0}
  - {x: -0.30450854, y: 0}
  - {x: -0.18090169, y: 0.4}
  - {x: -0.30450854, y: 0.4}
  - {x: 0.18541022, y: 0}
  - {x: 0.000000006926032, y: 0}
  - {x: 0.18541022, y: 0.4}
  - {x: 0.000000006926032, y: 0.4}
  - {x: -0.030901548, y: 0}
  - {x: -0.15450835, y: 0}
  - {x: -0.030901548, y: 0.4}
  - {x: -0.15450835, y: 0.4}
  - {x: -0.000000096303786, y: 0}
  - {x: -0.18541023, y: 0}
  - {x: -0.000000096303786, y: 0.4}
  - {x: -0.18541023, y: 0.4}
  - {x: 0.15450838, y: 0}
  - {x: 0.030901624, y: 0}
  - {x: 0.15450838, y: 0.4}
  - {x: 0.030901624, y: 0.4}
  - {x: -0.14999996, y: 0}
  - {x: -0.33541015, y: 0}
  - {x: -0.14999996, y: 0.4}
  - {x: -0.33541015, y: 0.4}
  - {x: 0.30450848, y: 0}
  - {x: 0.18090166, y: 0}
  - {x: 0.30450848, y: 0.4}
  - {x: 0.18090166, y: 0.4}
  - {x: -0.20729488, y: 0}
  - {x: -0.39270514, y: 0}
  - {x: -0.20729488, y: 0.4}
  - {x: -0.39270514, y: 0.4}
  - {x: 0.36180344, y: 0}
  - {x: 0.23819658, y: 0}
  - {x: 0.36180344, y: 0.4}
  - {x: 0.23819658, y: 0.4}
  - {x: -0.15000004, y: 0}
  - {x: -0.33541018, y: 0}
  - {x: -0.15000004, y: 0.4}
  - {x: -0.33541018, y: 0.4}
  - {x: 0.30450848, y: 0}
  - {x: 0.1809017, y: 0}
  - {x: 0.30450848, y: 0.4}
  - {x: 0.1809017, y: 0.4}
  - {x: 0, y: 0}
  - {x: -0.18541023, y: 0}
  - {x: 0, y: 0.4}
  - {x: -0.18541023, y: 0.4}
  - {x: 0.15450853, y: 0}
  - {x: 0.030901702, y: 0}
  - {x: 0.15450853, y: 0.4}
  - {x: 0.030901702, y: 0.4}
  - {x: 0.1854102, y: 0.4}
  - {x: 0, y: 0.4}
  - {x: 0.1854102, y: 0.8}
  - {x: 0, y: 0.8}
  - {x: -0.030901702, y: 0.4}
  - {x: -0.1545085, y: 0.4}
  - {x: -0.030901702, y: 0.8}
  - {x: -0.1545085, y: 0.8}
  - {x: 0.3354102, y: 0.4}
  - {x: 0.15, y: 0.4}
  - {x: 0.3354102, y: 0.8}
  - {x: 0.15, y: 0.8}
  - {x: -0.1809017, y: 0.4}
  - {x: -0.3045085, y: 0.4}
  - {x: -0.1809017, y: 0.8}
  - {x: -0.3045085, y: 0.8}
  - {x: 0.39270508, y: 0.4}
  - {x: 0.20729491, y: 0.4}
  - {x: 0.39270508, y: 0.8}
  - {x: 0.20729491, y: 0.8}
  - {x: -0.23819661, y: 0.4}
  - {x: -0.3618034, y: 0.4}
  - {x: -0.23819661, y: 0.8}
  - {x: -0.3618034, y: 0.8}
  - {x: 0.33541018, y: 0.4}
  - {x: 0.14999995, y: 0.4}
  - {x: 0.33541018, y: 0.8}
  - {x: 0.14999995, y: 0.8}
  - {x: -0.18090169, y: 0.4}
  - {x: -0.30450854, y: 0.4}
  - {x: -0.18090169, y: 0.8}
  - {x: -0.30450854, y: 0.8}
  - {x: 0.18541022, y: 0.4}
  - {x: 0.000000006926032, y: 0.4}
  - {x: 0.18541022, y: 0.8}
  - {x: 0.000000006926032, y: 0.8}
  - {x: -0.030901548, y: 0.4}
  - {x: -0.15450835, y: 0.4}
  - {x: -0.030901548, y: 0.8}
  - {x: -0.15450835, y: 0.8}
  - {x: -0.000000096303786, y: 0.4}
  - {x: -0.18541023, y: 0.4}
  - {x: -0.000000096303786, y: 0.8}
  - {x: -0.18541023, y: 0.8}
  - {x: 0.15450838, y: 0.4}
  - {x: 0.030901624, y: 0.4}
  - {x: 0.15450838, y: 0.8}
  - {x: 0.030901624, y: 0.8}
  - {x: -0.14999996, y: 0.4}
  - {x: -0.33541015, y: 0.4}
  - {x: -0.14999996, y: 0.8}
  - {x: -0.33541015, y: 0.8}
  - {x: 0.30450848, y: 0.4}
  - {x: 0.18090166, y: 0.4}
  - {x: 0.30450848, y: 0.8}
  - {x: 0.18090166, y: 0.8}
  - {x: -0.20729488, y: 0.4}
  - {x: -0.39270514, y: 0.4}
  - {x: -0.20729488, y: 0.8}
  - {x: -0.39270514, y: 0.8}
  - {x: 0.36180344, y: 0.4}
  - {x: 0.23819658, y: 0.4}
  - {x: 0.36180344, y: 0.8}
  - {x: 0.23819658, y: 0.8}
  - {x: -0.15000004, y: 0.4}
  - {x: -0.33541018, y: 0.4}
  - {x: -0.15000004, y: 0.8}
  - {x: -0.33541018, y: 0.8}
  - {x: 0.30450848, y: 0.4}
  - {x: 0.1809017, y: 0.4}
  - {x: 0.30450848, y: 0.8}
  - {x: 0.1809017, y: 0.8}
  - {x: 0, y: 0.4}
  - {x: -0.18541023, y: 0.4}
  - {x: 0, y: 0.8}
  - {x: -0.18541023, y: 0.8}
  - {x: 0.15450853, y: 0.4}
  - {x: 0.030901702, y: 0.4}
  - {x: 0.15450853, y: 0.8}
  - {x: 0.030901702, y: 0.8}
  - {x: 0, y: 0}
  - {x: 0.057294905, y: 0.17633557}
  - {x: 0.099999994, y: 0}
  - {x: 0.1381966, y: 0.117557056}
  - {x: -0.057294905, y: 0.17633557}
  - {x: 0, y: 0}
  - {x: -0.1381966, y: 0.117557056}
  - {x: -0.099999994, y: 0}
  - {x: 0.057294905, y: 0.17633557}
  - {x: 0.20729491, y: 0.28531697}
  - {x: 0.1381966, y: 0.117557056}
  - {x: 0.23819661, y: 0.19021133}
  - {x: -0.20729491, y: 0.28531697}
  - {x: -0.057294905, y: 0.17633557}
  - {x: -0.23819661, y: 0.19021133}
  - {x: -0.1381966, y: 0.117557056}
  - {x: 0.20729491, y: 0.28531697}
  - {x: 0.39270508, y: 0.28531697}
  - {x: 0.23819661, y: 0.19021133}
  - {x: 0.3618034, y: 0.19021133}
  - {x: -0.39270508, y: 0.28531697}
  - {x: -0.20729491, y: 0.28531697}
  - {x: -0.3618034, y: 0.19021133}
  - {x: -0.23819661, y: 0.19021133}
  - {x: 0.39270508, y: 0.28531697}
  - {x: 0.5427051, y: 0.17633556}
  - {x: 0.3618034, y: 0.19021133}
  - {x: 0.46180344, y: 0.11755705}
  - {x: -0.5427051, y: 0.17633556}
  - {x: -0.39270508, y: 0.28531697}
  - {x: -0.46180344, y: 0.11755705}
  - {x: -0.3618034, y: 0.19021133}
  - {x: 0.5427051, y: 0.17633556}
  - {x: 0.6, y: -0.000000026226834}
  - {x: 0.46180344, y: 0.11755705}
  - {x: 0.5, y: -0.000000017484556}
  - {x: -0.6, y: -0.000000026226834}
  - {x: -0.5427051, y: 0.17633556}
  - {x: -0.5, y: -0.000000017484556}
  - {x: -0.46180344, y: 0.11755705}
  - {x: 0.6, y: -0.000000026226834}
  - {x: 0.5427051, y: -0.17633554}
  - {x: 0.5, y: -0.000000017484556}
  - {x: 0.46180344, y: -0.117557034}
  - {x: -0.5427051, y: -0.17633554}
  - {x: -0.6, y: -0.000000026226834}
  - {x: -0.46180344, y: -0.117557034}
  - {x: -0.5, y: -0.000000017484556}
  - {x: 0.5427051, y: -0.17633554}
  - {x: 0.39270514, y: -0.28531694}
  - {x: 0.46180344, y: -0.117557034}
  - {x: 0.36180344, y: -0.19021131}
  - {x: -0.39270514, y: -0.28531694}
  - {x: -0.5427051, y: -0.17633554}
  - {x: -0.36180344, y: -0.19021131}
  - {x: -0.46180344, y: -0.117557034}
  - {x: 0.39270514, y: -0.28531694}
  - {x: 0.20729488, y: -0.28531694}
  - {x: 0.36180344, y: -0.19021131}
  - {x: 0.23819658, y: -0.19021131}
  - {x: -0.20729488, y: -0.28531694}
  - {x: -0.39270514, y: -0.28531694}
  - {x: -0.23819658, y: -0.19021131}
  - {x: -0.36180344, y: -0.19021131}
  - {x: 0.20729488, y: -0.28531694}
  - {x: 0.05729492, y: -0.1763356}
  - {x: 0.23819658, y: -0.19021131}
  - {x: 0.1381966, y: -0.11755707}
  - {x: -0.05729492, y: -0.1763356}
  - {x: -0.20729488, y: -0.28531694}
  - {x: -0.1381966, y: -0.11755707}
  - {x: -0.23819658, y: -0.19021131}
  - {x: 0.05729492, y: -0.1763356}
  - {x: 0, y: 0}
  - {x: 0.1381966, y: -0.11755707}
  - {x: 0.099999994, y: 0}
  - {x: 0, y: 0}
  - {x: -0.05729492, y: -0.1763356}
  - {x: -0.099999994, y: 0}
  - {x: -0.1381966, y: -0.11755707}
  m_Textures2: []
  m_Textures3: []
  m_Tangents:
  - {x: -0.309017, y: 0, z: 0.95105654, w: -1}
  - {x: -0.309017, y: 0, z: 0.95105654, w: -1}
  - {x: -0.309017, y: 0, z: 0.95105654, w: -1}
  - {x: -0.309017, y: 0, z: 0.95105654, w: -1}
  - {x: 0.30901706, y: 0, z: -0.95105654, w: -1}
  - {x: 0.30901706, y: 0, z: -0.95105654, w: -1}
  - {x: 0.30901706, y: 0, z: -0.95105654, w: -1}
  - {x: 0.30901706, y: 0, z: -0.95105654, w: -1}
  - {x: -0.8090169, y: 0, z: 0.5877853, w: -1}
  - {x: -0.8090169, y: 0, z: 0.5877853, w: -1}
  - {x: -0.8090169, y: 0, z: 0.5877853, w: -1}
  - {x: -0.8090169, y: 0, z: 0.5877853, w: -1}
  - {x: 0.80901694, y: 0, z: -0.5877853, w: -1}
  - {x: 0.80901694, y: 0, z: -0.5877853, w: -1}
  - {x: 0.80901694, y: 0, z: -0.5877853, w: -1}
  - {x: 0.80901694, y: 0, z: -0.5877853, w: -1}
  - {x: -1, y: 0, z: 0, w: -1}
  - {x: -1, y: 0, z: 0, w: -1}
  - {x: -1, y: 0, z: 0, w: -1}
  - {x: -1, y: 0, z: 0, w: -1}
  - {x: 1, y: 0, z: 0, w: -1}
  - {x: 1, y: 0, z: 0, w: -1}
  - {x: 1, y: 0, z: 0, w: -1}
  - {x: 1, y: 0, z: 0, w: -1}
  - {x: -0.80901694, y: 0, z: -0.5877853, w: -1}
  - {x: -0.80901694, y: 0, z: -0.5877853, w: -1}
  - {x: -0.80901694, y: 0, z: -0.5877853, w: -1}
  - {x: -0.80901694, y: 0, z: -0.5877853, w: -1}
  - {x: 0.80901694, y: 0, z: 0.5877853, w: -1}
  - {x: 0.80901694, y: 0, z: 0.5877853, w: -1}
  - {x: 0.80901694, y: 0, z: 0.5877853, w: -1}
  - {x: 0.80901694, y: 0, z: 0.5877853, w: -1}
  - {x: -0.30901697, y: 0, z: -0.95105654, w: -1}
  - {x: -0.30901697, y: 0, z: -0.95105654, w: -1}
  - {x: -0.30901697, y: 0, z: -0.95105654, w: -1}
  - {x: -0.30901697, y: 0, z: -0.95105654, w: -1}
  - {x: 0.3090167, y: 0, z: 0.95105666, w: -1}
  - {x: 0.3090167, y: 0, z: 0.95105666, w: -1}
  - {x: 0.3090167, y: 0, z: 0.95105666, w: -1}
  - {x: 0.3090167, y: 0, z: 0.95105666, w: -1}
  - {x: 0.3090171, y: 0, z: -0.9510565, w: -1}
  - {x: 0.3090171, y: 0, z: -0.9510565, w: -1}
  - {x: 0.3090171, y: 0, z: -0.9510565, w: -1}
  - {x: 0.3090171, y: 0, z: -0.9510565, w: -1}
  - {x: -0.3090168, y: 0, z: 0.9510566, w: -1}
  - {x: -0.3090168, y: 0, z: 0.9510566, w: -1}
  - {x: -0.3090168, y: 0, z: 0.9510566, w: -1}
  - {x: -0.3090168, y: 0, z: 0.9510566, w: -1}
  - {x: 0.80901694, y: 0, z: -0.5877854, w: -1}
  - {x: 0.80901694, y: 0, z: -0.5877854, w: -1}
  - {x: 0.80901694, y: 0, z: -0.5877854, w: -1}
  - {x: 0.80901694, y: 0, z: -0.5877854, w: -1}
  - {x: -0.8090169, y: 0, z: 0.5877854, w: -1}
  - {x: -0.8090169, y: 0, z: 0.5877854, w: -1}
  - {x: -0.8090169, y: 0, z: 0.5877854, w: -1}
  - {x: -0.8090169, y: 0, z: 0.5877854, w: -1}
  - {x: 1, y: 0, z: 0, w: -1}
  - {x: 1, y: 0, z: 0, w: -1}
  - {x: 1, y: 0, z: 0, w: -1}
  - {x: 1, y: 0, z: 0, w: -1}
  - {x: -1, y: 0, z: 0, w: -1}
  - {x: -1, y: 0, z: 0, w: -1}
  - {x: -1, y: 0, z: 0, w: -1}
  - {x: -1, y: 0, z: 0, w: -1}
  - {x: 0.80901706, y: 0, z: 0.58778524, w: -1}
  - {x: 0.80901706, y: 0, z: 0.58778524, w: -1}
  - {x: 0.80901706, y: 0, z: 0.58778524, w: -1}
  - {x: 0.80901706, y: 0, z: 0.58778524, w: -1}
  - {x: -0.809017, y: 0, z: -0.5877853, w: -1}
  - {x: -0.809017, y: 0, z: -0.5877853, w: -1}
  - {x: -0.809017, y: 0, z: -0.5877853, w: -1}
  - {x: -0.809017, y: 0, z: -0.5877853, w: -1}
  - {x: 0.30901706, y: 0, z: 0.95105654, w: -1}
  - {x: 0.30901706, y: 0, z: 0.95105654, w: -1}
  - {x: 0.30901706, y: 0, z: 0.95105654, w: -1}
  - {x: 0.30901706, y: 0, z: 0.95105654, w: -1}
  - {x: -0.30901703, y: 0, z: -0.95105654, w: -1}
  - {x: -0.30901703, y: 0, z: -0.95105654, w: -1}
  - {x: -0.30901703, y: 0, z: -0.95105654, w: -1}
  - {x: -0.30901703, y: 0, z: -0.95105654, w: -1}
  - {x: -0.309017, y: 0, z: 0.95105654, w: -1}
  - {x: -0.309017, y: 0, z: 0.95105654, w: -1}
  - {x: -0.309017, y: 0, z: 0.95105654, w: -1}
  - {x: -0.309017, y: 0, z: 0.95105654, w: -1}
  - {x: 0.30901706, y: 0, z: -0.95105654, w: -1}
  - {x: 0.30901706, y: 0, z: -0.95105654, w: -1}
  - {x: 0.30901706, y: 0, z: -0.95105654, w: -1}
  - {x: 0.30901706, y: 0, z: -0.95105654, w: -1}
  - {x: -0.8090169, y: 0, z: 0.5877853, w: -1}
  - {x: -0.8090169, y: 0, z: 0.5877853, w: -1}
  - {x: -0.8090169, y: 0, z: 0.5877853, w: -1}
  - {x: -0.8090169, y: 0, z: 0.5877853, w: -1}
  - {x: 0.80901694, y: 0, z: -0.5877853, w: -1}
  - {x: 0.80901694, y: 0, z: -0.5877853, w: -1}
  - {x: 0.80901694, y: 0, z: -0.5877853, w: -1}
  - {x: 0.80901694, y: 0, z: -0.5877853, w: -1}
  - {x: -1, y: 0, z: 0, w: -1}
  - {x: -1, y: 0, z: 0, w: -1}
  - {x: -1, y: 0, z: 0, w: -1}
  - {x: -1, y: 0, z: 0, w: -1}
  - {x: 1, y: 0, z: 0, w: -1}
  - {x: 1, y: 0, z: 0, w: -1}
  - {x: 1, y: 0, z: 0, w: -1}
  - {x: 1, y: 0, z: 0, w: -1}
  - {x: -0.80901694, y: 0, z: -0.5877853, w: -1}
  - {x: -0.80901694, y: 0, z: -0.5877853, w: -1}
  - {x: -0.80901694, y: 0, z: -0.5877853, w: -1}
  - {x: -0.80901694, y: 0, z: -0.5877853, w: -1}
  - {x: 0.80901694, y: 0, z: 0.5877853, w: -1}
  - {x: 0.80901694, y: 0, z: 0.5877853, w: -1}
  - {x: 0.80901694, y: 0, z: 0.5877853, w: -1}
  - {x: 0.80901694, y: 0, z: 0.5877853, w: -1}
  - {x: -0.30901697, y: 0, z: -0.95105654, w: -1}
  - {x: -0.30901697, y: 0, z: -0.95105654, w: -1}
  - {x: -0.30901697, y: 0, z: -0.95105654, w: -1}
  - {x: -0.30901697, y: 0, z: -0.95105654, w: -1}
  - {x: 0.3090167, y: 0, z: 0.95105666, w: -1}
  - {x: 0.3090167, y: 0, z: 0.95105666, w: -1}
  - {x: 0.3090167, y: 0, z: 0.95105666, w: -1}
  - {x: 0.3090167, y: 0, z: 0.95105666, w: -1}
  - {x: 0.3090171, y: 0, z: -0.9510565, w: -1}
  - {x: 0.3090171, y: 0, z: -0.9510565, w: -1}
  - {x: 0.3090171, y: 0, z: -0.9510565, w: -1}
  - {x: 0.3090171, y: 0, z: -0.9510565, w: -1}
  - {x: -0.3090168, y: 0, z: 0.9510566, w: -1}
  - {x: -0.3090168, y: 0, z: 0.9510566, w: -1}
  - {x: -0.3090168, y: 0, z: 0.9510566, w: -1}
  - {x: -0.3090168, y: 0, z: 0.9510566, w: -1}
  - {x: 0.80901694, y: 0, z: -0.5877854, w: -1}
  - {x: 0.80901694, y: 0, z: -0.5877854, w: -1}
  - {x: 0.80901694, y: 0, z: -0.5877854, w: -1}
  - {x: 0.80901694, y: 0, z: -0.5877854, w: -1}
  - {x: -0.8090169, y: 0, z: 0.5877854, w: -1}
  - {x: -0.8090169, y: 0, z: 0.5877854, w: -1}
  - {x: -0.8090169, y: 0, z: 0.5877854, w: -1}
  - {x: -0.8090169, y: 0, z: 0.5877854, w: -1}
  - {x: 1, y: 0, z: 0, w: -1}
  - {x: 1, y: 0, z: 0, w: -1}
  - {x: 1, y: 0, z: 0, w: -1}
  - {x: 1, y: 0, z: 0, w: -1}
  - {x: -1, y: 0, z: 0, w: -1}
  - {x: -1, y: 0, z: 0, w: -1}
  - {x: -1, y: 0, z: 0, w: -1}
  - {x: -1, y: 0, z: 0, w: -1}
  - {x: 0.80901706, y: 0, z: 0.58778524, w: -1}
  - {x: 0.80901706, y: 0, z: 0.58778524, w: -1}
  - {x: 0.80901706, y: 0, z: 0.58778524, w: -1}
  - {x: 0.80901706, y: 0, z: 0.58778524, w: -1}
  - {x: -0.809017, y: 0, z: -0.5877853, w: -1}
  - {x: -0.809017, y: 0, z: -0.5877853, w: -1}
  - {x: -0.809017, y: 0, z: -0.5877853, w: -1}
  - {x: -0.809017, y: 0, z: -0.5877853, w: -1}
  - {x: 0.30901706, y: 0, z: 0.95105654, w: -1}
  - {x: 0.30901706, y: 0, z: 0.95105654, w: -1}
  - {x: 0.30901706, y: 0, z: 0.95105654, w: -1}
  - {x: 0.30901706, y: 0, z: 0.95105654, w: -1}
  - {x: -0.30901703, y: 0, z: -0.95105654, w: -1}
  - {x: -0.30901703, y: 0, z: -0.95105654, w: -1}
  - {x: -0.30901703, y: 0, z: -0.95105654, w: -1}
  - {x: -0.30901703, y: 0, z: -0.95105654, w: -1}
  - {x: -1, y: 0, z: 0, w: -1}
  - {x: -1, y: 0, z: 0, w: -1}
  - {x: -1, y: 0, z: 0, w: -1}
  - {x: -1, y: 0, z: 0, w: -1}
  - {x: 1, y: 0, z: 0, w: -1}
  - {x: 1, y: 0, z: 0, w: -1}
  - {x: 1, y: 0, z: 0, w: -1}
  - {x: 1, y: 0, z: 0, w: -1}
  - {x: -1, y: 0, z: 0, w: -1}
  - {x: -1, y: 0, z: 0, w: -1}
  - {x: -1, y: 0, z: 0, w: -1}
  - {x: -1, y: 0, z: 0, w: -1}
  - {x: 1, y: 0, z: 0, w: -1}
  - {x: 1, y: 0, z: 0, w: -1}
  - {x: 1, y: 0, z: 0, w: -1}
  - {x: 1, y: 0, z: 0, w: -1}
  - {x: -1, y: 0, z: 0, w: -1}
  - {x: -1, y: 0, z: 0, w: -1}
  - {x: -1, y: 0, z: 0, w: -1}
  - {x: -1, y: 0, z: 0, w: -1}
  - {x: 1, y: 0, z: 0, w: -1}
  - {x: 1, y: 0, z: 0, w: -1}
  - {x: 1, y: 0, z: 0, w: -1}
  - {x: 1, y: 0, z: 0, w: -1}
  - {x: -1, y: 0, z: 0, w: -1}
  - {x: -1, y: 0, z: 0, w: -1}
  - {x: -1, y: 0, z: 0, w: -1}
  - {x: -1, y: 0, z: 0, w: -1}
  - {x: 1, y: 0, z: 0, w: -1}
  - {x: 1, y: 0, z: 0, w: -1}
  - {x: 1, y: 0, z: 0, w: -1}
  - {x: 1, y: 0, z: 0, w: -1}
  - {x: -1, y: 0, z: 0, w: -1}
  - {x: -1, y: 0, z: 0, w: -1}
  - {x: -1, y: 0, z: 0, w: -1}
  - {x: -1, y: 0, z: 0, w: -1}
  - {x: 1, y: 0, z: 0, w: -1}
  - {x: 1, y: 0, z: 0, w: -1}
  - {x: 1, y: 0, z: 0, w: -1}
  - {x: 1, y: 0, z: 0, w: -1}
  - {x: -1, y: 0, z: 0, w: -1}
  - {x: -1, y: 0, z: 0, w: -1}
  - {x: -1, y: 0, z: 0, w: -1}
  - {x: -1, y: 0, z: 0, w: -1}
  - {x: 1, y: 0, z: 0, w: -1}
  - {x: 1, y: 0, z: 0, w: -1}
  - {x: 1, y: 0, z: 0, w: -1}
  - {x: 1, y: 0, z: 0, w: -1}
  - {x: -1, y: 0, z: 0, w: -1}
  - {x: -1, y: 0, z: 0, w: -1}
  - {x: -1, y: 0, z: 0, w: -1}
  - {x: -1, y: 0, z: 0, w: -1}
  - {x: 1, y: 0, z: 0, w: -1}
  - {x: 1, y: 0, z: 0, w: -1}
  - {x: 1, y: 0, z: 0, w: -1}
  - {x: 1, y: 0, z: 0, w: -1}
  - {x: -1, y: 0, z: 0, w: -1}
  - {x: -1, y: 0, z: 0, w: -1}
  - {x: -1, y: 0, z: 0, w: -1}
  - {x: -1, y: 0, z: 0, w: -1}
  - {x: 1, y: 0, z: 0, w: -1}
  - {x: 1, y: 0, z: 0, w: -1}
  - {x: 1, y: 0, z: 0, w: -1}
  - {x: 1, y: 0, z: 0, w: -1}
  - {x: -1, y: 0, z: 0, w: -1}
  - {x: -1, y: 0, z: 0, w: -1}
  - {x: -1, y: 0, z: 0, w: -1}
  - {x: -1, y: 0, z: 0, w: -1}
  - {x: 1, y: 0, z: 0, w: -1}
  - {x: 1, y: 0, z: 0, w: -1}
  - {x: 1, y: 0, z: 0, w: -1}
  - {x: 1, y: 0, z: 0, w: -1}
  - {x: -1, y: 0, z: 0, w: -1}
  - {x: -1, y: 0, z: 0, w: -1}
  - {x: -1, y: 0, z: 0, w: -1}
  - {x: -1, y: 0, z: 0, w: -1}
  - {x: 1, y: 0, z: 0, w: -1}
  - {x: 1, y: 0, z: 0, w: -1}
  - {x: 1, y: 0, z: 0, w: -1}
  - {x: 1, y: 0, z: 0, w: -1}
  m_Colors: []
  m_UnwrapParameters:
    m_HardAngle: 88
    m_PackMargin: 20
    m_AngleError: 8
    m_AreaError: 15
  m_PreserveMeshAssetOnDestroy: 0
  assetGuid: 
  m_Mesh: {fileID: 0}
  m_IsSelectable: 1
  m_SelectedFaces: 
  m_SelectedEdges: []
  m_SelectedVertices: 
--- !u!23 &3315486465482414796
MeshRenderer:
  m_ObjectHideFlags: 0
  m_CorrespondingSourceObject: {fileID: 0}
  m_PrefabInstance: {fileID: 0}
  m_PrefabAsset: {fileID: 0}
  m_GameObject: {fileID: 1692846293821588495}
  m_Enabled: 1
  m_CastShadows: 1
  m_ReceiveShadows: 1
  m_DynamicOccludee: 1
  m_MotionVectors: 1
  m_LightProbeUsage: 1
  m_ReflectionProbeUsage: 1
  m_RayTracingMode: 2
  m_RenderingLayerMask: 1
  m_RendererPriority: 0
  m_Materials:
  - {fileID: 2100000, guid: c22777d6e868e4f2fb421913386b154e, type: 2}
  m_StaticBatchInfo:
    firstSubMesh: 0
    subMeshCount: 0
  m_StaticBatchRoot: {fileID: 0}
  m_ProbeAnchor: {fileID: 0}
  m_LightProbeVolumeOverride: {fileID: 0}
  m_ScaleInLightmap: 1
  m_ReceiveGI: 1
  m_PreserveUVs: 0
  m_IgnoreNormalsForChartDetection: 0
  m_ImportantGI: 0
  m_StitchLightmapSeams: 1
  m_SelectedEditorRenderState: 2
  m_MinimumChartSize: 4
  m_AutoUVMaxDistance: 0.5
  m_AutoUVMaxAngle: 89
  m_LightmapParameters: {fileID: 0}
  m_SortingLayerID: 0
  m_SortingLayer: 0
  m_SortingOrder: 0
--- !u!33 &2408884685440903666
MeshFilter:
  m_ObjectHideFlags: 0
  m_CorrespondingSourceObject: {fileID: 0}
  m_PrefabInstance: {fileID: 0}
  m_PrefabAsset: {fileID: 0}
  m_GameObject: {fileID: 1692846293821588495}
  m_Mesh: {fileID: 0}
--- !u!64 &8495118473935284980
MeshCollider:
  m_ObjectHideFlags: 0
  m_CorrespondingSourceObject: {fileID: 0}
  m_PrefabInstance: {fileID: 0}
  m_PrefabAsset: {fileID: 0}
  m_GameObject: {fileID: 1692846293821588495}
  m_Material: {fileID: 0}
  m_IsTrigger: 0
  m_Enabled: 1
  serializedVersion: 4
  m_Convex: 0
  m_CookingOptions: 30
  m_Mesh: {fileID: 0}
